
digraph G {
node [shape=box, style=filled, color=skyblue, fontcolor=black];
node4071[label="S"];
"node4071"->"node4070";
node4070[label="NT_HEAD"];
"node4070"->"node2346";
node2346[label="NT_BODY"];
"node2346"->"node2344";
node2344[label="NT_DECLARACION_TIPO_2"];
"node2344"->"node2345";
node2345[label="var1"];
"node2344"->"node2342";
node2342[label="NT_EXPRESION"];
"node2342"->"node2343";
node2343[label="1"];
"node2346"->"node2349";
node2349[label="NT_DECLARACION_TIPO_2"];
"node2349"->"node2350";
node2350[label="punteo"];
"node2349"->"node2347";
node2347[label="NT_EXPRESION"];
"node2347"->"node2348";
node2348[label="0"];
"node2346"->"node2411";
node2411[label="NT_FUNCION"];
"node2411"->"node2412";
node2412[label="void"];
"node2411"->"node2413";
node2413[label="principal"];
"node2411"->"node2354";
node2354[label="NT_SENTENCIAS"];
"node2354"->"node2353";
node2353[label="PRINT"];
"node2353"->"node2351";
node2351[label="NT_EXPRESION"];
"node2351"->"node2352";
node2352[label="\"---------------------------------- EVALUANDO ARCHIVO DE ALBA --------------------------------------------------\""];
"node2354"->"node2357";
node2357[label="PRINT"];
"node2357"->"node2355";
node2355[label="NT_EXPRESION"];
"node2355"->"node2356";
node2356[label="\"-----------------CALIFICACION-----------------\""];
"node2354"->"node2361";
node2361[label="NT_ASIGNACION"];
"node2361"->"node2358";
node2358[label="var1"];
"node2361"->"node2362";
node2362[label="="];
"node2361"->"node2359";
node2359[label="NT_EXPRESION"];
"node2359"->"node2360";
node2360[label="0"];
"node2354"->"node2390";
node2390[label="NT_IF"];
"node2390"->"node2367";
node2367[label="NT_EXPRESION"];
"node2367"->"node2363";
node2363[label="NT_EXPRESION"];
"node2363"->"node2364";
node2364[label="var1"];
"node2367"->"node2368";
node2368[label="!="];
"node2367"->"node2365";
node2365[label="NT_EXPRESION"];
"node2365"->"node2366";
node2366[label="0"];
"node2390"->"node2372";
node2372[label="NT_SENTENCIAS"];
"node2372"->"node2371";
node2371[label="PRINT"];
"node2371"->"node2369";
node2369[label="NT_EXPRESION"];
"node2369"->"node2370";
node2370[label="\"No se toma con prioridad la variable local ante la global\""];
"node2372"->"node2375";
node2375[label="PRINT"];
"node2375"->"node2373";
node2373[label="NT_EXPRESION"];
"node2373"->"node2374";
node2374[label="\"Perdiste 5 puntos :c\""];
"node2390"->"node2389";
node2389[label="NT_ELSE"];
"node2389"->"node2385";
node2385[label="NT_SENTENCIAS"];
"node2385"->"node2383";
node2383[label="NT_ASIGNACION"];
"node2383"->"node2376";
node2376[label="punteo"];
"node2383"->"node2384";
node2384[label="="];
"node2383"->"node2381";
node2381[label="NT_EXPRESION"];
"node2381"->"node2377";
node2377[label="NT_EXPRESION"];
"node2377"->"node2378";
node2378[label="punteo"];
"node2381"->"node2382";
node2382[label="+"];
"node2381"->"node2379";
node2379[label="NT_EXPRESION"];
"node2379"->"node2380";
node2380[label="5"];
"node2385"->"node2388";
node2388[label="PRINT"];
"node2388"->"node2386";
node2386[label="NT_EXPRESION"];
"node2386"->"node2387";
node2387[label="\"+5 pts\""];
"node2354"->"node2391";
node2391[label="NT_LLAMADA_FUNCION"];
"node2391"->"node2392";
node2392[label="Declaracion"];
"node2354"->"node2395";
node2395[label="NT_DECLARACION_TIPO_2"];
"node2395"->"node2396";
node2396[label="amb1"];
"node2395"->"node2393";
node2393[label="NT_EXPRESION"];
"node2393"->"node2394";
node2394[label="5"];
"node2354"->"node2397";
node2397[label="NT_LLAMADA_FUNCION"];
"node2397"->"node2398";
node2398[label="Ambitos2"];
"node2354"->"node2399";
node2399[label="NT_LLAMADA_FUNCION"];
"node2399"->"node2400";
node2400[label="Aritmeticas"];
"node2354"->"node2401";
node2401[label="NT_LLAMADA_FUNCION"];
"node2401"->"node2402";
node2402[label="Logicas"];
"node2354"->"node2403";
node2403[label="NT_LLAMADA_FUNCION"];
"node2403"->"node2404";
node2404[label="Relacionales"];
"node2354"->"node2407";
node2407[label="PRINT"];
"node2407"->"node2405";
node2405[label="NT_EXPRESION"];
"node2405"->"node2406";
node2406[label="\"punteo Final: \""];
"node2354"->"node2410";
node2410[label="PRINT"];
"node2410"->"node2408";
node2408[label="NT_EXPRESION"];
"node2408"->"node2409";
node2409[label="punteo"];
"node2346"->"node2478";
node2478[label="NT_FUNCION"];
"node2478"->"node2479";
node2479[label="void"];
"node2478"->"node2480";
node2480[label="Declaracion"];
"node2478"->"node2417";
node2417[label="NT_SENTENCIAS"];
"node2417"->"node2416";
node2416[label="PRINT"];
"node2416"->"node2414";
node2414[label="NT_EXPRESION"];
"node2414"->"node2415";
node2415[label="\"========= Metodo Declaracion =========\""];
"node2417"->"node2420";
node2420[label="NT_DECLARACION_TIPO_2"];
"node2420"->"node2421";
node2421[label="n4"];
"node2420"->"node2418";
node2418[label="NT_EXPRESION"];
"node2418"->"node2419";
node2419[label="2"];
"node2417"->"node2424";
node2424[label="NT_DECLARACION_TIPO_2"];
"node2424"->"node2425";
node2425[label="str4"];
"node2424"->"node2422";
node2422[label="NT_EXPRESION"];
"node2422"->"node2423";
node2423[label="\"Voy a ganar Compiladore\""];
"node2417"->"node2428";
node2428[label="NT_DECLARACION_TIPO_2"];
"node2428"->"node2429";
node2429[label="db4"];
"node2428"->"node2426";
node2426[label="NT_EXPRESION"];
"node2426"->"node2427";
node2427[label="0.0"];
"node2417"->"node2432";
node2432[label="NT_DECLARACION_TIPO_2"];
"node2432"->"node2433";
node2433[label="db1"];
"node2432"->"node2430";
node2430[label="NT_EXPRESION"];
"node2430"->"node2431";
node2431[label="db4"];
"node2417"->"node2436";
node2436[label="NT_DECLARACION_TIPO_2"];
"node2436"->"node2437";
node2437[label="chr4"];
"node2436"->"node2434";
node2434[label="NT_EXPRESION"];
"node2434"->"node2435";
node2435[label="\"s\""];
"node2417"->"node2465";
node2465[label="NT_IF"];
"node2465"->"node2442";
node2442[label="NT_EXPRESION"];
"node2442"->"node2438";
node2438[label="NT_EXPRESION"];
"node2438"->"node2439";
node2439[label="db1"];
"node2442"->"node2443";
node2443[label="=="];
"node2442"->"node2440";
node2440[label="NT_EXPRESION"];
"node2440"->"node2441";
node2441[label="db4"];
"node2465"->"node2447";
node2447[label="NT_SENTENCIAS"];
"node2447"->"node2446";
node2446[label="PRINT"];
"node2446"->"node2444";
node2444[label="NT_EXPRESION"];
"node2444"->"node2445";
node2445[label="str4"];
"node2447"->"node2450";
node2450[label="PRINT"];
"node2450"->"node2448";
node2448[label="NT_EXPRESION"];
"node2448"->"node2449";
node2449[label="chr4"];
"node2447"->"node2453";
node2453[label="PRINT"];
"node2453"->"node2451";
node2451[label="NT_EXPRESION"];
"node2451"->"node2452";
node2452[label="\" \""];
"node2447"->"node2456";
node2456[label="PRINT"];
"node2456"->"node2454";
node2454[label="NT_EXPRESION"];
"node2454"->"node2455";
node2455[label="n4"];
"node2447"->"node2459";
node2459[label="PRINT"];
"node2459"->"node2457";
node2457[label="NT_EXPRESION"];
"node2457"->"node2458";
node2458[label="\" :D\""];
"node2465"->"node2464";
node2464[label="NT_ELSE"];
"node2464"->"node2463";
node2463[label="NT_SENTENCIAS"];
"node2463"->"node2462";
node2462[label="PRINT"];
"node2462"->"node2460";
node2460[label="NT_EXPRESION"];
"node2460"->"node2461";
node2461[label="\"Problemas en el metodo declaracion :(\""];
"node2417"->"node2468";
node2468[label="PRINT"];
"node2468"->"node2466";
node2466[label="NT_EXPRESION"];
"node2466"->"node2467";
node2467[label="\"======================================\""];
"node2417"->"node2476";
node2476[label="NT_ASIGNACION"];
"node2476"->"node2469";
node2469[label="punteo"];
"node2476"->"node2477";
node2477[label="="];
"node2476"->"node2474";
node2474[label="NT_EXPRESION"];
"node2474"->"node2470";
node2470[label="NT_EXPRESION"];
"node2470"->"node2471";
node2471[label="punteo"];
"node2474"->"node2475";
node2475[label="+"];
"node2474"->"node2472";
node2472[label="NT_EXPRESION"];
"node2472"->"node2473";
node2473[label="5"];
"node2346"->"node2516";
node2516[label="NT_FUNCION"];
"node2516"->"node2517";
node2517[label="void"];
"node2516"->"node2518";
node2518[label="Ambitos2"];
"node2516"->"node2484";
node2484[label="NT_SENTENCIAS"];
"node2484"->"node2483";
node2483[label="PRINT"];
"node2483"->"node2481";
node2481[label="NT_EXPRESION"];
"node2481"->"node2482";
node2482[label="\"========= Error Ambitos ==============\""];
"node2484"->"node2487";
node2487[label="PRINT"];
"node2487"->"node2485";
node2485[label="NT_EXPRESION"];
"node2485"->"node2486";
node2486[label="\"Debería lanzar error: \""];
"node2484"->"node2490";
node2490[label="NT_DECLARACION_TIPO_2"];
"node2490"->"node2491";
node2491[label="amb1"];
"node2490"->"node2488";
node2488[label="NT_EXPRESION"];
"node2488"->"node2489";
node2489[label="\"Desde ambito2\""];
"node2484"->"node2494";
node2494[label="PRINT"];
"node2494"->"node2492";
node2492[label="NT_EXPRESION"];
"node2492"->"node2493";
node2493[label="\"======================================\""];
"node2484"->"node2497";
node2497[label="PRINT"];
"node2497"->"node2495";
node2495[label="NT_EXPRESION"];
"node2495"->"node2496";
node2496[label="\"================ Nice ================\""];
"node2484"->"node2505";
node2505[label="NT_ASIGNACION"];
"node2505"->"node2498";
node2498[label="punteo"];
"node2505"->"node2506";
node2506[label="="];
"node2505"->"node2503";
node2503[label="NT_EXPRESION"];
"node2503"->"node2499";
node2499[label="NT_EXPRESION"];
"node2499"->"node2500";
node2500[label="punteo"];
"node2503"->"node2504";
node2504[label="+"];
"node2503"->"node2501";
node2501[label="NT_EXPRESION"];
"node2501"->"node2502";
node2502[label="5"];
"node2484"->"node2509";
node2509[label="PRINT"];
"node2509"->"node2507";
node2507[label="NT_EXPRESION"];
"node2507"->"node2508";
node2508[label="\"Sin error: \""];
"node2484"->"node2512";
node2512[label="PRINT"];
"node2512"->"node2510";
node2510[label="NT_EXPRESION"];
"node2510"->"node2511";
node2511[label="amb1"];
"node2484"->"node2515";
node2515[label="PRINT"];
"node2515"->"node2513";
node2513[label="NT_EXPRESION"];
"node2513"->"node2514";
node2514[label="\"======================================\""];
"node2346"->"node2687";
node2687[label="NT_FUNCION"];
"node2687"->"node2688";
node2688[label="void"];
"node2687"->"node2689";
node2689[label="Aritmeticas"];
"node2687"->"node2543";
node2543[label="NT_SENTENCIAS"];
"node2543"->"node2541";
node2541[label="NT_DECLARACION_TIPO_2"];
"node2541"->"node2542";
node2542[label="n1"];
"node2541"->"node2539";
node2539[label="NT_EXPRESION"];
"node2539"->"node2535";
node2535[label="NT_EXPRESION"];
"node2535"->"node2531";
node2531[label="NT_EXPRESION"];
"node2531"->"node2527";
node2527[label="NT_EXPRESION"];
"node2527"->"node2523";
node2523[label="NT_EXPRESION"];
"node2523"->"node2519";
node2519[label="NT_EXPRESION"];
"node2519"->"node2520";
node2520[label="0.0"];
"node2523"->"node2524";
node2524[label="+"];
"node2523"->"node2521";
node2521[label="NT_EXPRESION"];
"node2521"->"node2522";
node2522[label="1"];
"node2527"->"node2528";
node2528[label="+"];
"node2527"->"node2525";
node2525[label="NT_EXPRESION"];
"node2525"->"node2526";
node2526[label="1"];
"node2531"->"node2532";
node2532[label="+"];
"node2531"->"node2529";
node2529[label="NT_EXPRESION"];
"node2529"->"node2530";
node2530[label="1"];
"node2535"->"node2536";
node2536[label="+"];
"node2535"->"node2533";
node2533[label="NT_EXPRESION"];
"node2533"->"node2534";
node2534[label="0.1"];
"node2539"->"node2540";
node2540[label="+"];
"node2539"->"node2537";
node2537[label="NT_EXPRESION"];
"node2537"->"node2538";
node2538[label="49"];
"node2543"->"node2546";
node2546[label="PRINT"];
"node2546"->"node2544";
node2544[label="NT_EXPRESION"];
"node2544"->"node2545";
node2545[label="\"El valor de  n1: \""];
"node2543"->"node2549";
node2549[label="PRINT"];
"node2549"->"node2547";
node2547[label="NT_EXPRESION"];
"node2547"->"node2548";
node2548[label="n1"];
"node2543"->"node2574";
node2574[label="NT_IF"];
"node2574"->"node2554";
node2554[label="NT_EXPRESION"];
"node2554"->"node2550";
node2550[label="NT_EXPRESION"];
"node2550"->"node2551";
node2551[label="n1"];
"node2554"->"node2555";
node2555[label="=="];
"node2554"->"node2552";
node2552[label="NT_EXPRESION"];
"node2552"->"node2553";
node2553[label="52.1"];
"node2574"->"node2565";
node2565[label="NT_SENTENCIAS"];
"node2565"->"node2563";
node2563[label="NT_ASIGNACION"];
"node2563"->"node2556";
node2556[label="punteo"];
"node2563"->"node2564";
node2564[label="="];
"node2563"->"node2561";
node2561[label="NT_EXPRESION"];
"node2561"->"node2557";
node2557[label="NT_EXPRESION"];
"node2557"->"node2558";
node2558[label="punteo"];
"node2561"->"node2562";
node2562[label="+"];
"node2561"->"node2559";
node2559[label="NT_EXPRESION"];
"node2559"->"node2560";
node2560[label="5"];
"node2565"->"node2568";
node2568[label="PRINT"];
"node2568"->"node2566";
node2566[label="NT_EXPRESION"];
"node2566"->"node2567";
node2567[label="\"correcto n1, +5 :D\""];
"node2574"->"node2573";
node2573[label="NT_ELSE"];
"node2573"->"node2572";
node2572[label="NT_SENTENCIAS"];
"node2572"->"node2571";
node2571[label="PRINT"];
"node2571"->"node2569";
node2569[label="NT_EXPRESION"];
"node2569"->"node2570";
node2570[label="\"Perdiste 5 puntos en suma de enteros booleanos y caracteres :c\""];
"node2543"->"node2590";
node2590[label="NT_DECLARACION_TIPO_2"];
"node2590"->"node2591";
node2591[label="n4"];
"node2590"->"node2588";
node2588[label="NT_EXPRESION"];
"node2588"->"node2584";
node2584[label="NT_EXPRESION"];
"node2584"->"node2581";
node2581[label="NT_EXPRESION"];
"node2581"->"node2579";
node2579[label="NT_EXPRESION"];
"node2579"->"node2575";
node2575[label="NT_EXPRESION"];
"node2575"->"node2576";
node2576[label="5750"];
"node2579"->"node2580";
node2580[label="*"];
"node2579"->"node2577";
node2577[label="NT_EXPRESION"];
"node2577"->"node2578";
node2578[label="2"];
"node2584"->"node2585";
node2585[label="-"];
"node2584"->"node2582";
node2582[label="NT_EXPRESION"];
"node2582"->"node2583";
node2583[label="11800"];
"node2588"->"node2589";
node2589[label="+"];
"node2588"->"node2586";
node2586[label="NT_EXPRESION"];
"node2586"->"node2587";
node2587[label="1.0"];
"node2543"->"node2639";
node2639[label="NT_DECLARACION_TIPO_2"];
"node2639"->"node2640";
node2640[label="n3"];
"node2639"->"node2637";
node2637[label="NT_EXPRESION"];
"node2637"->"node2633";
node2633[label="NT_EXPRESION"];
"node2633"->"node2629";
node2629[label="NT_EXPRESION"];
"node2629"->"node2627";
node2627[label="NT_EXPRESION"];
"node2627"->"node2618";
node2618[label="NT_EXPRESION"];
"node2618"->"node2614";
node2614[label="NT_EXPRESION"];
"node2614"->"node2606";
node2606[label="NT_EXPRESION"];
"node2606"->"node2603";
node2603[label="NT_EXPRESION"];
"node2603"->"node2601";
node2601[label="NT_EXPRESION"];
"node2601"->"node2598";
node2598[label="NT_EXPRESION"];
"node2598"->"node2596";
node2596[label="NT_EXPRESION"];
"node2596"->"node2592";
node2592[label="NT_EXPRESION"];
"node2592"->"node2593";
node2593[label="3"];
"node2596"->"node2597";
node2597[label="*"];
"node2596"->"node2594";
node2594[label="NT_EXPRESION"];
"node2594"->"node2595";
node2595[label="3"];
"node2601"->"node2602";
node2602[label="+"];
"node2601"->"node2599";
node2599[label="NT_EXPRESION"];
"node2599"->"node2600";
node2600[label="4"];
"node2606"->"node2607";
node2607[label="-"];
"node2606"->"node2604";
node2604[label="NT_EXPRESION"];
"node2604"->"node2605";
node2605[label="80"];
"node2614"->"node2615";
node2615[label="+"];
"node2614"->"node2612";
node2612[label="NT_EXPRESION"];
"node2612"->"node2608";
node2608[label="NT_EXPRESION"];
"node2608"->"node2609";
node2609[label="40.00"];
"node2612"->"node2613";
node2613[label="*"];
"node2612"->"node2610";
node2610[label="NT_EXPRESION"];
"node2610"->"node2611";
node2611[label="2"];
"node2618"->"node2619";
node2619[label="+"];
"node2618"->"node2616";
node2616[label="NT_EXPRESION"];
"node2616"->"node2617";
node2617[label="358.50"];
"node2627"->"node2628";
node2628[label="-"];
"node2627"->"node2626";
node2626[label="NT_EXPRESION"];
"node2626"->"node2624";
node2624[label="NT_EXPRESION"];
"node2624"->"node2620";
node2620[label="NT_EXPRESION"];
"node2620"->"node2621";
node2621[label="29"];
"node2624"->"node2625";
node2625[label="/"];
"node2624"->"node2622";
node2622[label="NT_EXPRESION"];
"node2622"->"node2623";
node2623[label="14.50"];
"node2633"->"node2634";
node2634[label="-"];
"node2633"->"node2632";
node2632[label="NT_EXPRESION"];
"node2632"->"node2630";
node2630[label="NT_EXPRESION"];
"node2630"->"node2631";
node2631[label="0.50"];
"node2637"->"node2638";
node2638[label="+"];
"node2637"->"node2635";
node2635[label="NT_EXPRESION"];
"node2635"->"node2636";
node2636[label="n4"];
"node2543"->"node2643";
node2643[label="PRINT"];
"node2643"->"node2641";
node2641[label="NT_EXPRESION"];
"node2641"->"node2642";
node2642[label="\"El valor de n3 = \""];
"node2543"->"node2646";
node2646[label="PRINT"];
"node2646"->"node2644";
node2644[label="NT_EXPRESION"];
"node2644"->"node2645";
node2645[label="n3"];
"node2543"->"node2679";
node2679[label="NT_IF"];
"node2679"->"node2659";
node2659[label="NT_EXPRESION"];
"node2659"->"node2651";
node2651[label="NT_EXPRESION"];
"node2651"->"node2647";
node2647[label="NT_EXPRESION"];
"node2647"->"node2648";
node2648[label="n3"];
"node2651"->"node2652";
node2652[label="=="];
"node2651"->"node2649";
node2649[label="NT_EXPRESION"];
"node2649"->"node2650";
node2650[label="70"];
"node2659"->"node2660";
node2660[label="||"];
"node2659"->"node2657";
node2657[label="NT_EXPRESION"];
"node2657"->"node2653";
node2653[label="NT_EXPRESION"];
"node2653"->"node2654";
node2654[label="n3"];
"node2657"->"node2658";
node2658[label="=="];
"node2657"->"node2655";
node2655[label="NT_EXPRESION"];
"node2655"->"node2656";
node2656[label="70.0"];
"node2679"->"node2670";
node2670[label="NT_SENTENCIAS"];
"node2670"->"node2668";
node2668[label="NT_ASIGNACION"];
"node2668"->"node2661";
node2661[label="punteo"];
"node2668"->"node2669";
node2669[label="="];
"node2668"->"node2666";
node2666[label="NT_EXPRESION"];
"node2666"->"node2662";
node2662[label="NT_EXPRESION"];
"node2662"->"node2663";
node2663[label="punteo"];
"node2666"->"node2667";
node2667[label="+"];
"node2666"->"node2664";
node2664[label="NT_EXPRESION"];
"node2664"->"node2665";
node2665[label="3"];
"node2670"->"node2673";
node2673[label="PRINT"];
"node2673"->"node2671";
node2671[label="NT_EXPRESION"];
"node2671"->"node2672";
node2672[label="\"correcto n3, +3 :D\""];
"node2679"->"node2678";
node2678[label="NT_ELSE"];
"node2678"->"node2677";
node2677[label="NT_SENTENCIAS"];
"node2677"->"node2676";
node2676[label="PRINT"];
"node2676"->"node2674";
node2674[label="NT_EXPRESION"];
"node2674"->"node2675";
node2675[label="\"Perdiste 3 puntos :c \""];
"node2543"->"node2680";
node2680[label="NT_LLAMADA_FUNCION"];
"node2680"->"node2681";
node2681[label="operacionesBasicas"];
"node2543"->"node2682";
node2682[label="NT_LLAMADA_FUNCION"];
"node2682"->"node2683";
node2683[label="operacionesAvanzadas"];
"node2543"->"node2686";
node2686[label="PRINT"];
"node2686"->"node2684";
node2684[label="NT_EXPRESION"];
"node2684"->"node2685";
node2685[label="\"======================================\""];
"node2346"->"node2906";
node2906[label="NT_FUNCION"];
"node2906"->"node2907";
node2907[label="void"];
"node2906"->"node2908";
node2908[label="operacionesBasicas"];
"node2906"->"node2693";
node2693[label="NT_SENTENCIAS"];
"node2693"->"node2692";
node2692[label="PRINT"];
"node2692"->"node2690";
node2690[label="NT_EXPRESION"];
"node2690"->"node2691";
node2691[label="\"Operaciones Aritmeticas 1: valor esperado:  \na)62   \nb)0   \nc)-19   \nd)256   \nresultados>\""];
"node2693"->"node2729";
node2729[label="NT_DECLARACION_TIPO_2"];
"node2729"->"node2730";
node2730[label="a"];
"node2729"->"node2728";
node2728[label="NT_EXPRESION"];
"node2728"->"node2726";
node2726[label="NT_EXPRESION"];
"node2726"->"node2722";
node2722[label="NT_EXPRESION"];
"node2722"->"node2718";
node2718[label="NT_EXPRESION"];
"node2718"->"node2714";
node2714[label="NT_EXPRESION"];
"node2714"->"node2710";
node2710[label="NT_EXPRESION"];
"node2710"->"node2698";
node2698[label="NT_EXPRESION"];
"node2698"->"node2694";
node2694[label="NT_EXPRESION"];
"node2694"->"node2695";
node2695[label="20"];
"node2698"->"node2699";
node2699[label="-"];
"node2698"->"node2696";
node2696[label="NT_EXPRESION"];
"node2696"->"node2697";
node2697[label="10"];
"node2710"->"node2711";
node2711[label="+"];
"node2710"->"node2708";
node2708[label="NT_EXPRESION"];
"node2708"->"node2704";
node2704[label="NT_EXPRESION"];
"node2704"->"node2700";
node2700[label="NT_EXPRESION"];
"node2700"->"node2701";
node2701[label="8"];
"node2704"->"node2705";
node2705[label="/"];
"node2704"->"node2702";
node2702[label="NT_EXPRESION"];
"node2702"->"node2703";
node2703[label="2"];
"node2708"->"node2709";
node2709[label="*"];
"node2708"->"node2706";
node2706[label="NT_EXPRESION"];
"node2706"->"node2707";
node2707[label="3"];
"node2714"->"node2715";
node2715[label="+"];
"node2714"->"node2712";
node2712[label="NT_EXPRESION"];
"node2712"->"node2713";
node2713[label="10"];
"node2718"->"node2719";
node2719[label="-"];
"node2718"->"node2716";
node2716[label="NT_EXPRESION"];
"node2716"->"node2717";
node2717[label="10"];
"node2722"->"node2723";
node2723[label="-"];
"node2722"->"node2720";
node2720[label="NT_EXPRESION"];
"node2720"->"node2721";
node2721[label="10"];
"node2726"->"node2727";
node2727[label="+"];
"node2726"->"node2724";
node2724[label="NT_EXPRESION"];
"node2724"->"node2725";
node2725[label="50"];
"node2693"->"node2758";
node2758[label="NT_DECLARACION_TIPO_2"];
"node2758"->"node2759";
node2759[label="b"];
"node2758"->"node2757";
node2757[label="NT_EXPRESION"];
"node2757"->"node2755";
node2755[label="NT_EXPRESION"];
"node2755"->"node2751";
node2751[label="NT_EXPRESION"];
"node2751"->"node2747";
node2747[label="NT_EXPRESION"];
"node2747"->"node2743";
node2743[label="NT_EXPRESION"];
"node2743"->"node2739";
node2739[label="NT_EXPRESION"];
"node2739"->"node2735";
node2735[label="NT_EXPRESION"];
"node2735"->"node2731";
node2731[label="NT_EXPRESION"];
"node2731"->"node2732";
node2732[label="50"];
"node2735"->"node2736";
node2736[label="/"];
"node2735"->"node2733";
node2733[label="NT_EXPRESION"];
"node2733"->"node2734";
node2734[label="50"];
"node2739"->"node2740";
node2740[label="*"];
"node2739"->"node2737";
node2737[label="NT_EXPRESION"];
"node2737"->"node2738";
node2738[label="50"];
"node2743"->"node2744";
node2744[label="+"];
"node2743"->"node2741";
node2741[label="NT_EXPRESION"];
"node2741"->"node2742";
node2742[label="50"];
"node2747"->"node2748";
node2748[label="-"];
"node2747"->"node2745";
node2745[label="NT_EXPRESION"];
"node2745"->"node2746";
node2746[label="100"];
"node2751"->"node2752";
node2752[label="+"];
"node2751"->"node2749";
node2749[label="NT_EXPRESION"];
"node2749"->"node2750";
node2750[label="100"];
"node2755"->"node2756";
node2756[label="-"];
"node2755"->"node2753";
node2753[label="NT_EXPRESION"];
"node2753"->"node2754";
node2754[label="100"];
"node2693"->"node2811";
node2811[label="NT_DECLARACION_TIPO_2"];
"node2811"->"node2812";
node2812[label="c"];
"node2811"->"node2810";
node2810[label="NT_EXPRESION"];
"node2810"->"node2808";
node2808[label="NT_EXPRESION"];
"node2808"->"node2788";
node2788[label="NT_EXPRESION"];
"node2788"->"node2784";
node2784[label="NT_EXPRESION"];
"node2784"->"node2780";
node2780[label="NT_EXPRESION"];
"node2780"->"node2776";
node2776[label="NT_EXPRESION"];
"node2776"->"node2772";
node2772[label="NT_EXPRESION"];
"node2772"->"node2768";
node2768[label="NT_EXPRESION"];
"node2768"->"node2764";
node2764[label="NT_EXPRESION"];
"node2764"->"node2760";
node2760[label="NT_EXPRESION"];
"node2760"->"node2761";
node2761[label="100"];
"node2764"->"node2765";
node2765[label="/"];
"node2764"->"node2762";
node2762[label="NT_EXPRESION"];
"node2762"->"node2763";
node2763[label="20"];
"node2768"->"node2769";
node2769[label="*"];
"node2768"->"node2766";
node2766[label="NT_EXPRESION"];
"node2766"->"node2767";
node2767[label="9"];
"node2772"->"node2773";
node2773[label="-"];
"node2772"->"node2770";
node2770[label="NT_EXPRESION"];
"node2770"->"node2771";
node2771[label="78"];
"node2776"->"node2777";
node2777[label="+"];
"node2776"->"node2774";
node2774[label="NT_EXPRESION"];
"node2774"->"node2775";
node2775[label="6"];
"node2780"->"node2781";
node2781[label="-"];
"node2780"->"node2778";
node2778[label="NT_EXPRESION"];
"node2778"->"node2779";
node2779[label="7"];
"node2784"->"node2785";
node2785[label="+"];
"node2784"->"node2782";
node2782[label="NT_EXPRESION"];
"node2782"->"node2783";
node2783[label="8"];
"node2788"->"node2789";
node2789[label="-"];
"node2788"->"node2786";
node2786[label="NT_EXPRESION"];
"node2786"->"node2787";
node2787[label="7"];
"node2808"->"node2809";
node2809[label="+"];
"node2808"->"node2806";
node2806[label="NT_EXPRESION"];
"node2806"->"node2802";
node2802[label="NT_EXPRESION"];
"node2802"->"node2798";
node2798[label="NT_EXPRESION"];
"node2798"->"node2794";
node2794[label="NT_EXPRESION"];
"node2794"->"node2790";
node2790[label="NT_EXPRESION"];
"node2790"->"node2791";
node2791[label="7"];
"node2794"->"node2795";
node2795[label="*"];
"node2794"->"node2792";
node2792[label="NT_EXPRESION"];
"node2792"->"node2793";
node2793[label="1"];
"node2798"->"node2799";
node2799[label="*"];
"node2798"->"node2796";
node2796[label="NT_EXPRESION"];
"node2796"->"node2797";
node2797[label="2"];
"node2802"->"node2803";
node2803[label="*"];
"node2802"->"node2800";
node2800[label="NT_EXPRESION"];
"node2800"->"node2801";
node2801[label="3"];
"node2806"->"node2807";
node2807[label="/"];
"node2806"->"node2804";
node2804[label="NT_EXPRESION"];
"node2804"->"node2805";
node2805[label="3"];
"node2693"->"node2829";
node2829[label="NT_DECLARACION_TIPO_2"];
"node2829"->"node2830";
node2830[label="d"];
"node2829"->"node2828";
node2828[label="NT_EXPRESION"];
"node2828"->"node2826";
node2826[label="NT_EXPRESION"];
"node2826"->"node2813";
node2813[label="NT_EXPRESION"];
"node2813"->"node2814";
node2814[label="2"];
"node2826"->"node2827";
node2827[label="^^"];
"node2826"->"node2825";
node2825[label="NT_EXPRESION"];
"node2825"->"node2823";
node2823[label="NT_EXPRESION"];
"node2823"->"node2819";
node2819[label="NT_EXPRESION"];
"node2819"->"node2815";
node2815[label="NT_EXPRESION"];
"node2815"->"node2816";
node2816[label="20"];
"node2819"->"node2820";
node2820[label="/"];
"node2819"->"node2817";
node2817[label="NT_EXPRESION"];
"node2817"->"node2818";
node2818[label="5"];
"node2823"->"node2824";
node2824[label="*"];
"node2823"->"node2821";
node2821[label="NT_EXPRESION"];
"node2821"->"node2822";
node2822[label="2"];
"node2693"->"node2833";
node2833[label="PRINT"];
"node2833"->"node2831";
node2831[label="NT_EXPRESION"];
"node2831"->"node2832";
node2832[label="\"a) \""];
"node2693"->"node2836";
node2836[label="PRINT"];
"node2836"->"node2834";
node2834[label="NT_EXPRESION"];
"node2834"->"node2835";
node2835[label="a"];
"node2693"->"node2839";
node2839[label="PRINT"];
"node2839"->"node2837";
node2837[label="NT_EXPRESION"];
"node2837"->"node2838";
node2838[label="\"b) \""];
"node2693"->"node2842";
node2842[label="PRINT"];
"node2842"->"node2840";
node2840[label="NT_EXPRESION"];
"node2840"->"node2841";
node2841[label="b"];
"node2693"->"node2845";
node2845[label="PRINT"];
"node2845"->"node2843";
node2843[label="NT_EXPRESION"];
"node2843"->"node2844";
node2844[label="\"c) \""];
"node2693"->"node2848";
node2848[label="PRINT"];
"node2848"->"node2846";
node2846[label="NT_EXPRESION"];
"node2846"->"node2847";
node2847[label="c"];
"node2693"->"node2851";
node2851[label="PRINT"];
"node2851"->"node2849";
node2849[label="NT_EXPRESION"];
"node2849"->"node2850";
node2850[label="\"d) \""];
"node2693"->"node2854";
node2854[label="PRINT"];
"node2854"->"node2852";
node2852[label="NT_EXPRESION"];
"node2852"->"node2853";
node2853[label="d"];
"node2693"->"node2905";
node2905[label="NT_IF"];
"node2905"->"node2885";
node2885[label="NT_EXPRESION"];
"node2885"->"node2877";
node2877[label="NT_EXPRESION"];
"node2877"->"node2867";
node2867[label="NT_EXPRESION"];
"node2867"->"node2859";
node2859[label="NT_EXPRESION"];
"node2859"->"node2855";
node2855[label="NT_EXPRESION"];
"node2855"->"node2856";
node2856[label="a"];
"node2859"->"node2860";
node2860[label="=="];
"node2859"->"node2857";
node2857[label="NT_EXPRESION"];
"node2857"->"node2858";
node2858[label="62"];
"node2867"->"node2868";
node2868[label="&&"];
"node2867"->"node2865";
node2865[label="NT_EXPRESION"];
"node2865"->"node2861";
node2861[label="NT_EXPRESION"];
"node2861"->"node2862";
node2862[label="b"];
"node2865"->"node2866";
node2866[label="=="];
"node2865"->"node2863";
node2863[label="NT_EXPRESION"];
"node2863"->"node2864";
node2864[label="0"];
"node2877"->"node2878";
node2878[label="&&"];
"node2877"->"node2875";
node2875[label="NT_EXPRESION"];
"node2875"->"node2869";
node2869[label="NT_EXPRESION"];
"node2869"->"node2870";
node2870[label="c"];
"node2875"->"node2876";
node2876[label="=="];
"node2875"->"node2873";
node2873[label="NT_EXPRESION"];
"node2873"->"node2874";
node2874[label="-"];
"node2873"->"node2871";
node2871[label="NT_EXPRESION"];
"node2871"->"node2872";
node2872[label="19"];
"node2885"->"node2886";
node2886[label="&&"];
"node2885"->"node2883";
node2883[label="NT_EXPRESION"];
"node2883"->"node2879";
node2879[label="NT_EXPRESION"];
"node2879"->"node2880";
node2880[label="d"];
"node2883"->"node2884";
node2884[label="=="];
"node2883"->"node2881";
node2881[label="NT_EXPRESION"];
"node2881"->"node2882";
node2882[label="256"];
"node2905"->"node2890";
node2890[label="NT_SENTENCIAS"];
"node2890"->"node2889";
node2889[label="PRINT"];
"node2889"->"node2887";
node2887[label="NT_EXPRESION"];
"node2887"->"node2888";
node2888[label="\"Operaciones aritmeticas 1 bien :D\""];
"node2890"->"node2898";
node2898[label="NT_ASIGNACION"];
"node2898"->"node2891";
node2891[label="punteo"];
"node2898"->"node2899";
node2899[label="="];
"node2898"->"node2896";
node2896[label="NT_EXPRESION"];
"node2896"->"node2892";
node2892[label="NT_EXPRESION"];
"node2892"->"node2893";
node2893[label="punteo"];
"node2896"->"node2897";
node2897[label="+"];
"node2896"->"node2894";
node2894[label="NT_EXPRESION"];
"node2894"->"node2895";
node2895[label="5"];
"node2905"->"node2904";
node2904[label="NT_ELSE"];
"node2904"->"node2903";
node2903[label="NT_SENTENCIAS"];
"node2903"->"node2902";
node2902[label="PRINT"];
"node2902"->"node2900";
node2900[label="NT_EXPRESION"];
"node2900"->"node2901";
node2901[label="\"Error en las operaciones basicas :(\""];
"node2346"->"node3018";
node3018[label="NT_FUNCION"];
"node3018"->"node3019";
node3019[label="void"];
"node3018"->"node3020";
node3020[label="operacionesAvanzadas"];
"node3018"->"node2913";
node2913[label="NT_SENTENCIAS"];
"node2913"->"node2911";
node2911[label="NT_DECLARACION_TIPO_2"];
"node2911"->"node2912";
node2912[label="aritmetica1"];
"node2911"->"node2909";
node2909[label="NT_EXPRESION"];
"node2909"->"node2910";
node2910[label="2"];
"node2913"->"node2918";
node2918[label="NT_DECLARACION_TIPO_2"];
"node2918"->"node2919";
node2919[label="aritmetica2"];
"node2918"->"node2916";
node2916[label="NT_EXPRESION"];
"node2916"->"node2917";
node2917[label="-"];
"node2916"->"node2914";
node2914[label="NT_EXPRESION"];
"node2914"->"node2915";
node2915[label="10"];
"node2913"->"node2922";
node2922[label="PRINT"];
"node2922"->"node2920";
node2920[label="NT_EXPRESION"];
"node2920"->"node2921";
node2921[label="\"Operaciones Aritmeticas 2: valor esperado> -20  41, resultado>\""];
"node2913"->"node2929";
node2929[label="NT_DECLARACION_TIPO_2"];
"node2929"->"node2930";
node2930[label="aritmetica3"];
"node2929"->"node2927";
node2927[label="NT_EXPRESION"];
"node2927"->"node2923";
node2923[label="NT_EXPRESION"];
"node2923"->"node2924";
node2924[label="aritmetica2"];
"node2927"->"node2928";
node2928[label="*"];
"node2927"->"node2925";
node2925[label="NT_EXPRESION"];
"node2925"->"node2926";
node2926[label="aritmetica1"];
"node2913"->"node2933";
node2933[label="PRINT"];
"node2933"->"node2931";
node2931[label="NT_EXPRESION"];
"node2931"->"node2932";
node2932[label="aritmetica3"];
"node2913"->"node2978";
node2978[label="NT_ASIGNACION"];
"node2978"->"node2934";
node2934[label="aritmetica1"];
"node2978"->"node2979";
node2979[label="="];
"node2978"->"node2977";
node2977[label="NT_EXPRESION"];
"node2977"->"node2975";
node2975[label="NT_EXPRESION"];
"node2975"->"node2971";
node2971[label="NT_EXPRESION"];
"node2971"->"node2963";
node2963[label="NT_EXPRESION"];
"node2963"->"node2959";
node2959[label="NT_EXPRESION"];
"node2959"->"node2951";
node2951[label="NT_EXPRESION"];
"node2951"->"node2939";
node2939[label="NT_EXPRESION"];
"node2939"->"node2935";
node2935[label="NT_EXPRESION"];
"node2935"->"node2936";
node2936[label="aritmetica3"];
"node2939"->"node2940";
node2940[label="/"];
"node2939"->"node2937";
node2937[label="NT_EXPRESION"];
"node2937"->"node2938";
node2938[label="aritmetica1"];
"node2951"->"node2952";
node2952[label="+"];
"node2951"->"node2949";
node2949[label="NT_EXPRESION"];
"node2949"->"node2945";
node2945[label="NT_EXPRESION"];
"node2945"->"node2941";
node2941[label="NT_EXPRESION"];
"node2941"->"node2942";
node2942[label="50"];
"node2945"->"node2946";
node2946[label="^^"];
"node2945"->"node2943";
node2943[label="NT_EXPRESION"];
"node2943"->"node2944";
node2944[label="2"];
"node2949"->"node2950";
node2950[label="/"];
"node2949"->"node2947";
node2947[label="NT_EXPRESION"];
"node2947"->"node2948";
node2948[label="50"];
"node2959"->"node2960";
node2960[label="+"];
"node2959"->"node2957";
node2957[label="NT_EXPRESION"];
"node2957"->"node2953";
node2953[label="NT_EXPRESION"];
"node2953"->"node2954";
node2954[label="50"];
"node2957"->"node2958";
node2958[label="*"];
"node2957"->"node2955";
node2955[label="NT_EXPRESION"];
"node2955"->"node2956";
node2956[label="2"];
"node2963"->"node2964";
node2964[label="-"];
"node2963"->"node2961";
node2961[label="NT_EXPRESION"];
"node2961"->"node2962";
node2962[label="100"];
"node2971"->"node2972";
node2972[label="+"];
"node2971"->"node2969";
node2969[label="NT_EXPRESION"];
"node2969"->"node2965";
node2965[label="NT_EXPRESION"];
"node2965"->"node2966";
node2966[label="100"];
"node2969"->"node2970";
node2970[label="/"];
"node2969"->"node2967";
node2967[label="NT_EXPRESION"];
"node2967"->"node2968";
node2968[label="100"];
"node2975"->"node2976";
node2976[label="-"];
"node2975"->"node2973";
node2973[label="NT_EXPRESION"];
"node2973"->"node2974";
node2974[label="0"];
"node2913"->"node2982";
node2982[label="PRINT"];
"node2982"->"node2980";
node2980[label="NT_EXPRESION"];
"node2980"->"node2981";
node2981[label="aritmetica1"];
"node2913"->"node3017";
node3017[label="NT_IF"];
"node3017"->"node2997";
node2997[label="NT_EXPRESION"];
"node2997"->"node2989";
node2989[label="NT_EXPRESION"];
"node2989"->"node2983";
node2983[label="NT_EXPRESION"];
"node2983"->"node2984";
node2984[label="aritmetica3"];
"node2989"->"node2990";
node2990[label="=="];
"node2989"->"node2987";
node2987[label="NT_EXPRESION"];
"node2987"->"node2988";
node2988[label="-"];
"node2987"->"node2985";
node2985[label="NT_EXPRESION"];
"node2985"->"node2986";
node2986[label="20"];
"node2997"->"node2998";
node2998[label="&&"];
"node2997"->"node2995";
node2995[label="NT_EXPRESION"];
"node2995"->"node2991";
node2991[label="NT_EXPRESION"];
"node2991"->"node2992";
node2992[label="aritmetica1"];
"node2995"->"node2996";
node2996[label="=="];
"node2995"->"node2993";
node2993[label="NT_EXPRESION"];
"node2993"->"node2994";
node2994[label="41"];
"node3017"->"node3002";
node3002[label="NT_SENTENCIAS"];
"node3002"->"node3001";
node3001[label="PRINT"];
"node3001"->"node2999";
node2999[label="NT_EXPRESION"];
"node2999"->"node3000";
node3000[label="\"Operaciones aritmeticas 2 bien :D\""];
"node3002"->"node3010";
node3010[label="NT_ASIGNACION"];
"node3010"->"node3003";
node3003[label="punteo"];
"node3010"->"node3011";
node3011[label="="];
"node3010"->"node3008";
node3008[label="NT_EXPRESION"];
"node3008"->"node3004";
node3004[label="NT_EXPRESION"];
"node3004"->"node3005";
node3005[label="punteo"];
"node3008"->"node3009";
node3009[label="+"];
"node3008"->"node3006";
node3006[label="NT_EXPRESION"];
"node3006"->"node3007";
node3007[label="5"];
"node3017"->"node3016";
node3016[label="NT_ELSE"];
"node3016"->"node3015";
node3015[label="NT_SENTENCIAS"];
"node3015"->"node3014";
node3014[label="PRINT"];
"node3014"->"node3012";
node3012[label="NT_EXPRESION"];
"node3012"->"node3013";
node3013[label="\"Error Operaciones Aritmeticas :c alv :c\""];
"node2346"->"node3138";
node3138[label="NT_FUNCION"];
"node3138"->"node3139";
node3139[label="void"];
"node3138"->"node3140";
node3140[label="Logicas"];
"node3138"->"node3024";
node3024[label="NT_SENTENCIAS"];
"node3024"->"node3023";
node3023[label="PRINT"];
"node3023"->"node3021";
node3021[label="NT_EXPRESION"];
"node3021"->"node3022";
node3022[label="\"==============Logicas1=============\""];
"node3024"->"node3089";
node3089[label="NT_IF"];
"node3089"->"node3069";
node3069[label="NT_EXPRESION"];
"node3069"->"node3070";
node3070[label="!"];
"node3069"->"node3067";
node3067[label="NT_EXPRESION"];
"node3067"->"node3068";
node3068[label="!"];
"node3067"->"node3065";
node3065[label="NT_EXPRESION"];
"node3065"->"node3066";
node3066[label="!"];
"node3065"->"node3063";
node3063[label="NT_EXPRESION"];
"node3063"->"node3064";
node3064[label="!"];
"node3063"->"node3061";
node3061[label="NT_EXPRESION"];
"node3061"->"node3062";
node3062[label="!"];
"node3061"->"node3059";
node3059[label="NT_EXPRESION"];
"node3059"->"node3060";
node3060[label="!"];
"node3059"->"node3057";
node3057[label="NT_EXPRESION"];
"node3057"->"node3058";
node3058[label="!"];
"node3057"->"node3055";
node3055[label="NT_EXPRESION"];
"node3055"->"node3056";
node3056[label="!"];
"node3055"->"node3053";
node3053[label="NT_EXPRESION"];
"node3053"->"node3054";
node3054[label="!"];
"node3053"->"node3051";
node3051[label="NT_EXPRESION"];
"node3051"->"node3052";
node3052[label="!"];
"node3051"->"node3049";
node3049[label="NT_EXPRESION"];
"node3049"->"node3050";
node3050[label="!"];
"node3049"->"node3047";
node3047[label="NT_EXPRESION"];
"node3047"->"node3048";
node3048[label="!"];
"node3047"->"node3045";
node3045[label="NT_EXPRESION"];
"node3045"->"node3046";
node3046[label="!"];
"node3045"->"node3043";
node3043[label="NT_EXPRESION"];
"node3043"->"node3044";
node3044[label="!"];
"node3043"->"node3041";
node3041[label="NT_EXPRESION"];
"node3041"->"node3042";
node3042[label="!"];
"node3041"->"node3039";
node3039[label="NT_EXPRESION"];
"node3039"->"node3040";
node3040[label="!"];
"node3039"->"node3037";
node3037[label="NT_EXPRESION"];
"node3037"->"node3038";
node3038[label="!"];
"node3037"->"node3035";
node3035[label="NT_EXPRESION"];
"node3035"->"node3036";
node3036[label="!"];
"node3035"->"node3033";
node3033[label="NT_EXPRESION"];
"node3033"->"node3034";
node3034[label="!"];
"node3033"->"node3031";
node3031[label="NT_EXPRESION"];
"node3031"->"node3032";
node3032[label="!"];
"node3031"->"node3029";
node3029[label="NT_EXPRESION"];
"node3029"->"node3030";
node3030[label="!"];
"node3029"->"node3027";
node3027[label="NT_EXPRESION"];
"node3027"->"node3028";
node3028[label="!"];
"node3027"->"node3025";
node3025[label="NT_EXPRESION"];
"node3025"->"node3026";
node3026[label="true"];
"node3089"->"node3080";
node3080[label="NT_SENTENCIAS"];
"node3080"->"node3078";
node3078[label="NT_ASIGNACION"];
"node3078"->"node3071";
node3071[label="punteo"];
"node3078"->"node3079";
node3079[label="="];
"node3078"->"node3076";
node3076[label="NT_EXPRESION"];
"node3076"->"node3072";
node3072[label="NT_EXPRESION"];
"node3072"->"node3073";
node3073[label="punteo"];
"node3076"->"node3077";
node3077[label="+"];
"node3076"->"node3074";
node3074[label="NT_EXPRESION"];
"node3074"->"node3075";
node3075[label="1"];
"node3080"->"node3083";
node3083[label="PRINT"];
"node3083"->"node3081";
node3081[label="NT_EXPRESION"];
"node3081"->"node3082";
node3082[label="\"Bien primera condicion :)\""];
"node3089"->"node3088";
node3088[label="NT_ELSE"];
"node3088"->"node3087";
node3087[label="NT_SENTENCIAS"];
"node3087"->"node3086";
node3086[label="PRINT"];
"node3086"->"node3084";
node3084[label="NT_EXPRESION"];
"node3084"->"node3085";
node3085[label="\"Perdiste 1 punto :c\""];
"node3024"->"node3132";
node3132[label="NT_IF"];
"node3132"->"node3112";
node3112[label="NT_EXPRESION"];
"node3112"->"node3106";
node3106[label="NT_EXPRESION"];
"node3106"->"node3094";
node3094[label="NT_EXPRESION"];
"node3094"->"node3090";
node3090[label="NT_EXPRESION"];
"node3090"->"node3091";
node3091[label="true"];
"node3094"->"node3095";
node3095[label="&&"];
"node3094"->"node3092";
node3092[label="NT_EXPRESION"];
"node3092"->"node3093";
node3093[label="true"];
"node3106"->"node3107";
node3107[label="||"];
"node3106"->"node3104";
node3104[label="NT_EXPRESION"];
"node3104"->"node3100";
node3100[label="NT_EXPRESION"];
"node3100"->"node3096";
node3096[label="NT_EXPRESION"];
"node3096"->"node3097";
node3097[label="false"];
"node3100"->"node3101";
node3101[label="&&"];
"node3100"->"node3098";
node3098[label="NT_EXPRESION"];
"node3098"->"node3099";
node3099[label="false"];
"node3104"->"node3105";
node3105[label="&&"];
"node3104"->"node3102";
node3102[label="NT_EXPRESION"];
"node3102"->"node3103";
node3103[label="false"];
"node3112"->"node3113";
node3113[label="||"];
"node3112"->"node3110";
node3110[label="NT_EXPRESION"];
"node3110"->"node3111";
node3111[label="!"];
"node3110"->"node3108";
node3108[label="NT_EXPRESION"];
"node3108"->"node3109";
node3109[label="true"];
"node3132"->"node3123";
node3123[label="NT_SENTENCIAS"];
"node3123"->"node3121";
node3121[label="NT_ASIGNACION"];
"node3121"->"node3114";
node3114[label="punteo"];
"node3121"->"node3122";
node3122[label="="];
"node3121"->"node3119";
node3119[label="NT_EXPRESION"];
"node3119"->"node3115";
node3115[label="NT_EXPRESION"];
"node3115"->"node3116";
node3116[label="punteo"];
"node3119"->"node3120";
node3120[label="+"];
"node3119"->"node3117";
node3117[label="NT_EXPRESION"];
"node3117"->"node3118";
node3118[label="1"];
"node3123"->"node3126";
node3126[label="PRINT"];
"node3126"->"node3124";
node3124[label="NT_EXPRESION"];
"node3124"->"node3125";
node3125[label="\"Bien segunda condicion:)\""];
"node3132"->"node3131";
node3131[label="NT_ELSE"];
"node3131"->"node3130";
node3130[label="NT_SENTENCIAS"];
"node3130"->"node3129";
node3129[label="PRINT"];
"node3129"->"node3127";
node3127[label="NT_EXPRESION"];
"node3127"->"node3128";
node3128[label="\"Perdiste 1 punto :c\""];
"node3024"->"node3135";
node3135[label="PRINT"];
"node3135"->"node3133";
node3133[label="NT_EXPRESION"];
"node3133"->"node3134";
node3134[label="\"======================================\""];
"node3024"->"node3136";
node3136[label="NT_LLAMADA_FUNCION"];
"node3136"->"node3137";
node3137[label="Logicas2"];
"node2346"->"node3333";
node3333[label="NT_FUNCION"];
"node3333"->"node3334";
node3334[label="void"];
"node3333"->"node3335";
node3335[label="Logicas2"];
"node3333"->"node3145";
node3145[label="NT_SENTENCIAS"];
"node3145"->"node3143";
node3143[label="NT_DECLARACION_TIPO_2"];
"node3143"->"node3144";
node3144[label="n0"];
"node3143"->"node3141";
node3141[label="NT_EXPRESION"];
"node3141"->"node3142";
node3142[label="16"];
"node3145"->"node3148";
node3148[label="PRINT"];
"node3148"->"node3146";
node3146[label="NT_EXPRESION"];
"node3146"->"node3147";
node3147[label="\"==============Logicas2=============\""];
"node3145"->"node3194";
node3194[label="NT_IF"];
"node3194"->"node3174";
node3174[label="NT_EXPRESION"];
"node3174"->"node3175";
node3175[label="!"];
"node3174"->"node3173";
node3173[label="NT_EXPRESION"];
"node3173"->"node3171";
node3171[label="NT_EXPRESION"];
"node3171"->"node3164";
node3164[label="NT_EXPRESION"];
"node3164"->"node3165";
node3165[label="!"];
"node3164"->"node3163";
node3163[label="NT_EXPRESION"];
"node3163"->"node3161";
node3161[label="NT_EXPRESION"];
"node3161"->"node3153";
node3153[label="NT_EXPRESION"];
"node3153"->"node3149";
node3149[label="NT_EXPRESION"];
"node3149"->"node3150";
node3150[label="n0"];
"node3153"->"node3154";
node3154[label="=="];
"node3153"->"node3151";
node3151[label="NT_EXPRESION"];
"node3151"->"node3152";
node3152[label="16"];
"node3161"->"node3162";
node3162[label="&&"];
"node3161"->"node3159";
node3159[label="NT_EXPRESION"];
"node3159"->"node3155";
node3155[label="NT_EXPRESION"];
"node3155"->"node3156";
node3156[label="false"];
"node3159"->"node3160";
node3160[label="=="];
"node3159"->"node3157";
node3157[label="NT_EXPRESION"];
"node3157"->"node3158";
node3158[label="true"];
"node3171"->"node3172";
node3172[label="&&"];
"node3171"->"node3169";
node3169[label="NT_EXPRESION"];
"node3169"->"node3170";
node3170[label="!"];
"node3169"->"node3168";
node3168[label="NT_EXPRESION"];
"node3168"->"node3166";
node3166[label="NT_EXPRESION"];
"node3166"->"node3167";
node3167[label="true"];
"node3194"->"node3179";
node3179[label="NT_SENTENCIAS"];
"node3179"->"node3178";
node3178[label="PRINT"];
"node3178"->"node3176";
node3176[label="NT_EXPRESION"];
"node3176"->"node3177";
node3177[label="\"Not y Ands Correctos\""];
"node3179"->"node3187";
node3187[label="NT_ASIGNACION"];
"node3187"->"node3180";
node3180[label="punteo"];
"node3187"->"node3188";
node3188[label="="];
"node3187"->"node3185";
node3185[label="NT_EXPRESION"];
"node3185"->"node3181";
node3181[label="NT_EXPRESION"];
"node3181"->"node3182";
node3182[label="punteo"];
"node3185"->"node3186";
node3186[label="+"];
"node3185"->"node3183";
node3183[label="NT_EXPRESION"];
"node3183"->"node3184";
node3184[label="3"];
"node3194"->"node3193";
node3193[label="NT_ELSE"];
"node3193"->"node3192";
node3192[label="NT_SENTENCIAS"];
"node3192"->"node3191";
node3191[label="PRINT"];
"node3191"->"node3189";
node3189[label="NT_EXPRESION"];
"node3189"->"node3190";
node3190[label="\"No funcionan nots y ands :(\""];
"node3145"->"node3201";
node3201[label="NT_DECLARACION_TIPO_2"];
"node3201"->"node3202";
node3202[label="n1"];
"node3201"->"node3199";
node3199[label="NT_EXPRESION"];
"node3199"->"node3195";
node3195[label="NT_EXPRESION"];
"node3195"->"node3196";
node3196[label="n0"];
"node3199"->"node3200";
node3200[label="/"];
"node3199"->"node3197";
node3197[label="NT_EXPRESION"];
"node3197"->"node3198";
node3198[label="16"];
"node3145"->"node3226";
node3226[label="NT_IF"];
"node3226"->"node3203";
node3203[label="NT_EXPRESION"];
"node3203"->"node3204";
node3204[label="true"];
"node3226"->"node3214";
node3214[label="NT_SENTENCIAS"];
"node3214"->"node3212";
node3212[label="NT_ASIGNACION"];
"node3212"->"node3205";
node3205[label="n1"];
"node3212"->"node3213";
node3213[label="="];
"node3212"->"node3210";
node3210[label="NT_EXPRESION"];
"node3210"->"node3206";
node3206[label="NT_EXPRESION"];
"node3206"->"node3207";
node3207[label="n1"];
"node3210"->"node3211";
node3211[label="+"];
"node3210"->"node3208";
node3208[label="NT_EXPRESION"];
"node3208"->"node3209";
node3209[label="1"];
"node3226"->"node3225";
node3225[label="NT_ELSE"];
"node3225"->"node3224";
node3224[label="NT_SENTENCIAS"];
"node3224"->"node3222";
node3222[label="NT_ASIGNACION"];
"node3222"->"node3215";
node3215[label="n1"];
"node3222"->"node3223";
node3223[label="="];
"node3222"->"node3220";
node3220[label="NT_EXPRESION"];
"node3220"->"node3216";
node3216[label="NT_EXPRESION"];
"node3216"->"node3217";
node3217[label="n1"];
"node3220"->"node3221";
node3221[label="+"];
"node3220"->"node3218";
node3218[label="NT_EXPRESION"];
"node3218"->"node3219";
node3219[label="0"];
"node3145"->"node3233";
node3233[label="NT_DECLARACION_TIPO_2"];
"node3233"->"node3234";
node3234[label="condicion1"];
"node3233"->"node3231";
node3231[label="NT_EXPRESION"];
"node3231"->"node3227";
node3227[label="NT_EXPRESION"];
"node3227"->"node3228";
node3228[label="n1"];
"node3231"->"node3232";
node3232[label="!="];
"node3231"->"node3229";
node3229[label="NT_EXPRESION"];
"node3229"->"node3230";
node3230[label="2"];
"node3145"->"node3241";
node3241[label="NT_DECLARACION_TIPO_2"];
"node3241"->"node3242";
node3242[label="aritmetica1"];
"node3241"->"node3239";
node3239[label="NT_EXPRESION"];
"node3239"->"node3235";
node3235[label="NT_EXPRESION"];
"node3235"->"node3236";
node3236[label="n0"];
"node3239"->"node3240";
node3240[label="/"];
"node3239"->"node3237";
node3237[label="NT_EXPRESION"];
"node3237"->"node3238";
node3238[label="16"];
"node3145"->"node3277";
node3277[label="NT_IF"];
"node3277"->"node3255";
node3255[label="NT_EXPRESION"];
"node3255"->"node3254";
node3254[label="NT_EXPRESION"];
"node3254"->"node3253";
node3253[label="NT_EXPRESION"];
"node3253"->"node3252";
node3252[label="NT_EXPRESION"];
"node3252"->"node3250";
node3250[label="NT_EXPRESION"];
"node3250"->"node3251";
node3251[label="!"];
"node3250"->"node3249";
node3249[label="NT_EXPRESION"];
"node3249"->"node3247";
node3247[label="NT_EXPRESION"];
"node3247"->"node3243";
node3243[label="NT_EXPRESION"];
"node3243"->"node3244";
node3244[label="true"];
"node3247"->"node3248";
node3248[label="||"];
"node3247"->"node3245";
node3245[label="NT_EXPRESION"];
"node3245"->"node3246";
node3246[label="false"];
"node3277"->"node3265";
node3265[label="NT_SENTENCIAS"];
"node3265"->"node3263";
node3263[label="NT_ASIGNACION"];
"node3263"->"node3256";
node3256[label="aritmetica1"];
"node3263"->"node3264";
node3264[label="="];
"node3263"->"node3261";
node3261[label="NT_EXPRESION"];
"node3261"->"node3257";
node3257[label="NT_EXPRESION"];
"node3257"->"node3258";
node3258[label="aritmetica1"];
"node3261"->"node3262";
node3262[label="+"];
"node3261"->"node3259";
node3259[label="NT_EXPRESION"];
"node3259"->"node3260";
node3260[label="1"];
"node3277"->"node3276";
node3276[label="NT_ELSE"];
"node3276"->"node3275";
node3275[label="NT_SENTENCIAS"];
"node3275"->"node3273";
node3273[label="NT_ASIGNACION"];
"node3273"->"node3266";
node3266[label="aritmetica1"];
"node3273"->"node3274";
node3274[label="="];
"node3273"->"node3271";
node3271[label="NT_EXPRESION"];
"node3271"->"node3267";
node3267[label="NT_EXPRESION"];
"node3267"->"node3268";
node3268[label="aritmetica1"];
"node3271"->"node3272";
node3272[label="+"];
"node3271"->"node3269";
node3269[label="NT_EXPRESION"];
"node3269"->"node3270";
node3270[label="0"];
"node3145"->"node3284";
node3284[label="NT_DECLARACION_TIPO_2"];
"node3284"->"node3285";
node3285[label="condicion2"];
"node3284"->"node3282";
node3282[label="NT_EXPRESION"];
"node3282"->"node3278";
node3278[label="NT_EXPRESION"];
"node3278"->"node3279";
node3279[label="aritmetica1"];
"node3282"->"node3283";
node3283[label="=="];
"node3282"->"node3280";
node3280[label="NT_EXPRESION"];
"node3280"->"node3281";
node3281[label="n1"];
"node3145"->"node3290";
node3290[label="NT_DECLARACION_TIPO_2"];
"node3290"->"node3291";
node3291[label="condicion3"];
"node3290"->"node3288";
node3288[label="NT_EXPRESION"];
"node3288"->"node3289";
node3289[label="!"];
"node3288"->"node3286";
node3286[label="NT_EXPRESION"];
"node3286"->"node3287";
node3287[label="true"];
"node3145"->"node3329";
node3329[label="NT_IF"];
"node3329"->"node3309";
node3309[label="NT_EXPRESION"];
"node3309"->"node3310";
node3310[label="!"];
"node3309"->"node3308";
node3308[label="NT_EXPRESION"];
"node3308"->"node3306";
node3306[label="NT_EXPRESION"];
"node3306"->"node3307";
node3307[label="!"];
"node3306"->"node3305";
node3305[label="NT_EXPRESION"];
"node3305"->"node3303";
node3303[label="NT_EXPRESION"];
"node3303"->"node3299";
node3299[label="NT_EXPRESION"];
"node3299"->"node3300";
node3300[label="!"];
"node3299"->"node3298";
node3298[label="NT_EXPRESION"];
"node3298"->"node3296";
node3296[label="NT_EXPRESION"];
"node3296"->"node3292";
node3292[label="NT_EXPRESION"];
"node3292"->"node3293";
node3293[label="condicion1"];
"node3296"->"node3297";
node3297[label="||"];
"node3296"->"node3294";
node3294[label="NT_EXPRESION"];
"node3294"->"node3295";
node3295[label="condicion2"];
"node3303"->"node3304";
node3304[label="||"];
"node3303"->"node3301";
node3301[label="NT_EXPRESION"];
"node3301"->"node3302";
node3302[label="condicion3"];
"node3329"->"node3314";
node3314[label="NT_SENTENCIAS"];
"node3314"->"node3313";
node3313[label="PRINT"];
"node3313"->"node3311";
node3311[label="NT_EXPRESION"];
"node3311"->"node3312";
node3312[label="\"Nots y Ors correectos\""];
"node3314"->"node3322";
node3322[label="NT_ASIGNACION"];
"node3322"->"node3315";
node3315[label="punteo"];
"node3322"->"node3323";
node3323[label="="];
"node3322"->"node3320";
node3320[label="NT_EXPRESION"];
"node3320"->"node3316";
node3316[label="NT_EXPRESION"];
"node3316"->"node3317";
node3317[label="punteo"];
"node3320"->"node3321";
node3321[label="+"];
"node3320"->"node3318";
node3318[label="NT_EXPRESION"];
"node3318"->"node3319";
node3319[label="3"];
"node3329"->"node3328";
node3328[label="NT_ELSE"];
"node3328"->"node3327";
node3327[label="NT_SENTENCIAS"];
"node3327"->"node3326";
node3326[label="PRINT"];
"node3326"->"node3324";
node3324[label="NT_EXPRESION"];
"node3324"->"node3325";
node3325[label="\"No Funciona nots y ands :(\""];
"node3145"->"node3332";
node3332[label="PRINT"];
"node3332"->"node3330";
node3330[label="NT_EXPRESION"];
"node3330"->"node3331";
node3331[label="\"======================================\""];
"node2346"->"node3355";
node3355[label="NT_FUNCION"];
"node3355"->"node3356";
node3356[label="void"];
"node3355"->"node3357";
node3357[label="Relacionales"];
"node3355"->"node3340";
node3340[label="NT_SENTENCIAS"];
"node3340"->"node3338";
node3338[label="NT_DECLARACION_TIPO_2"];
"node3338"->"node3339";
node3339[label="n0"];
"node3338"->"node3336";
node3336[label="NT_EXPRESION"];
"node3336"->"node3337";
node3337[label="34"];
"node3340"->"node3343";
node3343[label="NT_DECLARACION_TIPO_2"];
"node3343"->"node3344";
node3344[label="n1"];
"node3343"->"node3341";
node3341[label="NT_EXPRESION"];
"node3341"->"node3342";
node3342[label="16"];
"node3340"->"node3348";
node3348[label="NT_LLAMADA_FUNCION"];
"node3348"->"node3349";
node3349[label="relaciones1"];
"node3348"->"node3347";
node3347[label="NT_LISTA_EXPRESIONES"];
"node3347"->"node3345";
node3345[label="NT_EXPRESION"];
"node3345"->"node3346";
node3346[label="n0"];
"node3340"->"node3353";
node3353[label="NT_LLAMADA_FUNCION"];
"node3353"->"node3354";
node3354[label="relaciones2"];
"node3353"->"node3352";
node3352[label="NT_LISTA_EXPRESIONES"];
"node3352"->"node3350";
node3350[label="NT_EXPRESION"];
"node3350"->"node3351";
node3351[label="n1"];
"node2346"->"node3457";
node3457[label="NT_FUNCION"];
"node3457"->"node3458";
node3458[label="void"];
"node3457"->"node3459";
node3459[label="relaciones1"];
"node3457"->"node3362";
node3362[label="NT_LISTA_EXPRESIONES_DEF"];
"node3362"->"node3360";
node3360[label="NT_PARAMETRO_DEF"];
"node3360"->"node3359";
node3359[label="NT_TIPO"];
"node3359"->"node3358";
node3358[label="integer"];
"node3360"->"node3361";
node3361[label="salida"];
"node3457"->"node3366";
node3366[label="NT_SENTENCIAS"];
"node3366"->"node3365";
node3365[label="PRINT"];
"node3365"->"node3363";
node3363[label="NT_EXPRESION"];
"node3363"->"node3364";
node3364[label="\"==============relacionales1=============\""];
"node3366"->"node3373";
node3373[label="NT_DECLARACION_TIPO_2"];
"node3373"->"node3374";
node3374[label="n0"];
"node3373"->"node3371";
node3371[label="NT_EXPRESION"];
"node3371"->"node3367";
node3367[label="NT_EXPRESION"];
"node3367"->"node3368";
node3368[label="salida"];
"node3371"->"node3372";
node3372[label="+"];
"node3371"->"node3369";
node3369[label="NT_EXPRESION"];
"node3369"->"node3370";
node3370[label="0.0"];
"node3366"->"node3415";
node3415[label="NT_IF"];
"node3415"->"node3379";
node3379[label="NT_EXPRESION"];
"node3379"->"node3375";
node3375[label="NT_EXPRESION"];
"node3375"->"node3376";
node3376[label="n0"];
"node3379"->"node3380";
node3380[label="<"];
"node3379"->"node3377";
node3377[label="NT_EXPRESION"];
"node3377"->"node3378";
node3378[label="34.44"];
"node3415"->"node3390";
node3390[label="NT_SENTENCIAS"];
"node3390"->"node3388";
node3388[label="NT_ASIGNACION"];
"node3388"->"node3381";
node3381[label="salida"];
"node3388"->"node3389";
node3389[label="="];
"node3388"->"node3386";
node3386[label="NT_EXPRESION"];
"node3386"->"node3382";
node3382[label="NT_EXPRESION"];
"node3382"->"node3383";
node3383[label="salida"];
"node3386"->"node3387";
node3387[label="+"];
"node3386"->"node3384";
node3384[label="NT_EXPRESION"];
"node3384"->"node3385";
node3385[label="15"];
"node3390"->"node3407";
node3407[label="NT_IF"];
"node3407"->"node3395";
node3395[label="NT_EXPRESION"];
"node3395"->"node3391";
node3391[label="NT_EXPRESION"];
"node3391"->"node3392";
node3392[label="salida"];
"node3395"->"node3396";
node3396[label=">"];
"node3395"->"node3393";
node3393[label="NT_EXPRESION"];
"node3393"->"node3394";
node3394[label="44"];
"node3407"->"node3406";
node3406[label="NT_SENTENCIAS"];
"node3406"->"node3404";
node3404[label="NT_ASIGNACION"];
"node3404"->"node3397";
node3397[label="salida"];
"node3404"->"node3405";
node3405[label="="];
"node3404"->"node3402";
node3402[label="NT_EXPRESION"];
"node3402"->"node3398";
node3398[label="NT_EXPRESION"];
"node3398"->"node3399";
node3399[label="salida"];
"node3402"->"node3403";
node3403[label="+"];
"node3402"->"node3400";
node3400[label="NT_EXPRESION"];
"node3400"->"node3401";
node3401[label="1"];
"node3415"->"node3414";
node3414[label="NT_ELSE"];
"node3414"->"node3413";
node3413[label="NT_SENTENCIAS"];
"node3413"->"node3411";
node3411[label="NT_ASIGNACION"];
"node3411"->"node3408";
node3408[label="salida"];
"node3411"->"node3412";
node3412[label="="];
"node3411"->"node3409";
node3409[label="NT_EXPRESION"];
"node3409"->"node3410";
node3410[label="1"];
"node3366"->"node3453";
node3453[label="NT_IF"];
"node3453"->"node3420";
node3420[label="NT_EXPRESION"];
"node3420"->"node3416";
node3416[label="NT_EXPRESION"];
"node3416"->"node3417";
node3417[label="salida"];
"node3420"->"node3421";
node3421[label="!="];
"node3420"->"node3418";
node3418[label="NT_EXPRESION"];
"node3418"->"node3419";
node3419[label="1"];
"node3453"->"node3447";
node3447[label="NT_SENTENCIAS"];
"node3447"->"node3446";
node3446[label="NT_IF"];
"node3446"->"node3426";
node3426[label="NT_EXPRESION"];
"node3426"->"node3422";
node3422[label="NT_EXPRESION"];
"node3422"->"node3423";
node3423[label="salida"];
"node3426"->"node3427";
node3427[label="=="];
"node3426"->"node3424";
node3424[label="NT_EXPRESION"];
"node3424"->"node3425";
node3425[label="50"];
"node3446"->"node3431";
node3431[label="NT_SENTENCIAS"];
"node3431"->"node3430";
node3430[label="PRINT"];
"node3430"->"node3428";
node3428[label="NT_EXPRESION"];
"node3428"->"node3429";
node3429[label="\"salida Correcta Relacionales 1!\""];
"node3431"->"node3439";
node3439[label="NT_ASIGNACION"];
"node3439"->"node3432";
node3432[label="punteo"];
"node3439"->"node3440";
node3440[label="="];
"node3439"->"node3437";
node3437[label="NT_EXPRESION"];
"node3437"->"node3433";
node3433[label="NT_EXPRESION"];
"node3433"->"node3434";
node3434[label="punteo"];
"node3437"->"node3438";
node3438[label="+"];
"node3437"->"node3435";
node3435[label="NT_EXPRESION"];
"node3435"->"node3436";
node3436[label="5"];
"node3446"->"node3445";
node3445[label="NT_ELSE"];
"node3445"->"node3444";
node3444[label="NT_SENTENCIAS"];
"node3444"->"node3443";
node3443[label="PRINT"];
"node3443"->"node3441";
node3441[label="NT_EXPRESION"];
"node3441"->"node3442";
node3442[label="\"salida incorrecta!!\""];
"node3453"->"node3452";
node3452[label="NT_ELSE"];
"node3452"->"node3451";
node3451[label="NT_SENTENCIAS"];
"node3451"->"node3450";
node3450[label="PRINT"];
"node3450"->"node3448";
node3448[label="NT_EXPRESION"];
"node3448"->"node3449";
node3449[label="\"salida incorrecta!!\""];
"node3366"->"node3456";
node3456[label="PRINT"];
"node3456"->"node3454";
node3454[label="NT_EXPRESION"];
"node3454"->"node3455";
node3455[label="\"======================================\""];
"node2346"->"node3594";
node3594[label="NT_FUNCION"];
"node3594"->"node3595";
node3595[label="void"];
"node3594"->"node3596";
node3596[label="relaciones2"];
"node3594"->"node3464";
node3464[label="NT_LISTA_EXPRESIONES_DEF"];
"node3464"->"node3462";
node3462[label="NT_PARAMETRO_DEF"];
"node3462"->"node3461";
node3461[label="NT_TIPO"];
"node3461"->"node3460";
node3460[label="integer"];
"node3462"->"node3463";
node3463[label="n0"];
"node3594"->"node3468";
node3468[label="NT_SENTENCIAS"];
"node3468"->"node3467";
node3467[label="PRINT"];
"node3467"->"node3465";
node3465[label="NT_EXPRESION"];
"node3465"->"node3466";
node3466[label="\"vas bien, animo :D\""];
"node3468"->"node3471";
node3471[label="PRINT"];
"node3471"->"node3469";
node3469[label="NT_EXPRESION"];
"node3469"->"node3470";
node3470[label="\"============Relacionales2=============\""];
"node3468"->"node3585";
node3585[label="NT_IF"];
"node3585"->"node3488";
node3488[label="NT_EXPRESION"];
"node3488"->"node3480";
node3480[label="NT_EXPRESION"];
"node3480"->"node3476";
node3476[label="NT_EXPRESION"];
"node3476"->"node3472";
node3472[label="NT_EXPRESION"];
"node3472"->"node3473";
node3473[label="10"];
"node3476"->"node3477";
node3477[label="-"];
"node3476"->"node3474";
node3474[label="NT_EXPRESION"];
"node3474"->"node3475";
node3475[label="15"];
"node3480"->"node3481";
node3481[label=">="];
"node3480"->"node3478";
node3478[label="NT_EXPRESION"];
"node3478"->"node3479";
node3479[label="0"];
"node3488"->"node3489";
node3489[label="&&"];
"node3488"->"node3486";
node3486[label="NT_EXPRESION"];
"node3486"->"node3482";
node3482[label="NT_EXPRESION"];
"node3482"->"node3483";
node3483[label="44.44"];
"node3486"->"node3487";
node3487[label="=="];
"node3486"->"node3484";
node3484[label="NT_EXPRESION"];
"node3484"->"node3485";
node3485[label="44.44"];
"node3585"->"node3493";
node3493[label="NT_SENTENCIAS"];
"node3493"->"node3492";
node3492[label="PRINT"];
"node3492"->"node3490";
node3490[label="NT_EXPRESION"];
"node3490"->"node3491";
node3491[label="\"salida incorrecta primer if relacionales2!!\""];
"node3585"->"node3584";
node3584[label="NT_ELSE"];
"node3584"->"node3583";
node3583[label="NT_SENTENCIAS"];
"node3583"->"node3582";
node3582[label="NT_IF"];
"node3582"->"node3532";
node3532[label="NT_EXPRESION"];
"node3532"->"node3518";
node3518[label="NT_EXPRESION"];
"node3518"->"node3498";
node3498[label="NT_EXPRESION"];
"node3498"->"node3494";
node3494[label="NT_EXPRESION"];
"node3494"->"node3495";
node3495[label="15"];
"node3498"->"node3499";
node3499[label="+"];
"node3498"->"node3496";
node3496[label="NT_EXPRESION"];
"node3496"->"node3497";
node3497[label="8"];
"node3518"->"node3519";
node3519[label="=="];
"node3518"->"node3516";
node3516[label="NT_EXPRESION"];
"node3516"->"node3512";
node3512[label="NT_EXPRESION"];
"node3512"->"node3504";
node3504[label="NT_EXPRESION"];
"node3504"->"node3500";
node3500[label="NT_EXPRESION"];
"node3500"->"node3501";
node3501[label="22"];
"node3504"->"node3505";
node3505[label="-"];
"node3504"->"node3502";
node3502[label="NT_EXPRESION"];
"node3502"->"node3503";
node3503[label="10"];
"node3512"->"node3513";
node3513[label="+"];
"node3512"->"node3510";
node3510[label="NT_EXPRESION"];
"node3510"->"node3506";
node3506[label="NT_EXPRESION"];
"node3506"->"node3507";
node3507[label="5"];
"node3510"->"node3511";
node3511[label="*"];
"node3510"->"node3508";
node3508[label="NT_EXPRESION"];
"node3508"->"node3509";
node3509[label="3"];
"node3516"->"node3517";
node3517[label="-"];
"node3516"->"node3514";
node3514[label="NT_EXPRESION"];
"node3514"->"node3515";
node3515[label="4"];
"node3532"->"node3533";
node3533[label="&&"];
"node3532"->"node3530";
node3530[label="NT_EXPRESION"];
"node3530"->"node3524";
node3524[label="NT_EXPRESION"];
"node3524"->"node3520";
node3520[label="NT_EXPRESION"];
"node3520"->"node3521";
node3521[label="13"];
"node3524"->"node3525";
node3525[label="*"];
"node3524"->"node3522";
node3522[label="NT_EXPRESION"];
"node3522"->"node3523";
node3523[label="0"];
"node3530"->"node3531";
node3531[label=">"];
"node3530"->"node3528";
node3528[label="NT_EXPRESION"];
"node3528"->"node3529";
node3529[label="-"];
"node3528"->"node3526";
node3526[label="NT_EXPRESION"];
"node3526"->"node3527";
node3527[label="1"];
"node3582"->"node3563";
node3563[label="NT_SENTENCIAS"];
"node3563"->"node3562";
node3562[label="NT_IF"];
"node3562"->"node3542";
node3542[label="NT_EXPRESION"];
"node3542"->"node3534";
node3534[label="NT_EXPRESION"];
"node3534"->"node3535";
node3535[label="10.0"];
"node3542"->"node3543";
node3543[label="!="];
"node3542"->"node3540";
node3540[label="NT_EXPRESION"];
"node3540"->"node3536";
node3536[label="NT_EXPRESION"];
"node3536"->"node3537";
node3537[label="11.0"];
"node3540"->"node3541";
node3541[label="-"];
"node3540"->"node3538";
node3538[label="NT_EXPRESION"];
"node3538"->"node3539";
node3539[label="1.01"];
"node3562"->"node3547";
node3547[label="NT_SENTENCIAS"];
"node3547"->"node3546";
node3546[label="PRINT"];
"node3546"->"node3544";
node3544[label="NT_EXPRESION"];
"node3544"->"node3545";
node3545[label="\"salida CORRECTA en relacionales2!!\""];
"node3547"->"node3555";
node3555[label="NT_ASIGNACION"];
"node3555"->"node3548";
node3548[label="punteo"];
"node3555"->"node3556";
node3556[label="="];
"node3555"->"node3553";
node3553[label="NT_EXPRESION"];
"node3553"->"node3549";
node3549[label="NT_EXPRESION"];
"node3549"->"node3550";
node3550[label="punteo"];
"node3553"->"node3554";
node3554[label="+"];
"node3553"->"node3551";
node3551[label="NT_EXPRESION"];
"node3551"->"node3552";
node3552[label="5"];
"node3562"->"node3561";
node3561[label="NT_ELSE"];
"node3561"->"node3560";
node3560[label="NT_SENTENCIAS"];
"node3560"->"node3559";
node3559[label="PRINT"];
"node3559"->"node3557";
node3557[label="NT_EXPRESION"];
"node3557"->"node3558";
node3558[label="\"salida incorrecta segundo if relacionales 2!!\""];
"node3582"->"node3581";
node3581[label="NT_ELSE"];
"node3581"->"node3580";
node3580[label="NT_SENTENCIAS"];
"node3580"->"node3579";
node3579[label="NT_IF"];
"node3579"->"node3568";
node3568[label="NT_EXPRESION"];
"node3568"->"node3564";
node3564[label="NT_EXPRESION"];
"node3564"->"node3565";
node3565[label="1"];
"node3568"->"node3569";
node3569[label="=="];
"node3568"->"node3566";
node3566[label="NT_EXPRESION"];
"node3566"->"node3567";
node3567[label="1"];
"node3579"->"node3573";
node3573[label="NT_SENTENCIAS"];
"node3573"->"node3572";
node3572[label="PRINT"];
"node3572"->"node3570";
node3570[label="NT_EXPRESION"];
"node3570"->"node3571";
node3571[label="\"salida incorrecta relacionales 2 3er if !!\""];
"node3579"->"node3578";
node3578[label="NT_ELSE"];
"node3578"->"node3577";
node3577[label="NT_SENTENCIAS"];
"node3577"->"node3576";
node3576[label="PRINT"];
"node3576"->"node3574";
node3574[label="NT_EXPRESION"];
"node3574"->"node3575";
node3575[label="\"salida incorrecta relacionales 2 Sino3er if !!\""];
"node3468"->"node3588";
node3588[label="PRINT"];
"node3588"->"node3586";
node3586[label="NT_EXPRESION"];
"node3586"->"node3587";
node3587[label="\"======================================\""];
"node3468"->"node3589";
node3589[label="NT_LLAMADA_FUNCION"];
"node3589"->"node3590";
node3590[label="SentenciasAnidadas"];
"node3468"->"node3593";
node3593[label="PRINT"];
"node3593"->"node3591";
node3591[label="NT_EXPRESION"];
"node3591"->"node3592";
node3592[label="\"siuuuuu el bisho al rescate\""];
"node2346"->"node3654";
node3654[label="NT_FUNCION"];
"node3654"->"node3655";
node3655[label="void"];
"node3654"->"node3656";
node3656[label="SentenciasAnidadas"];
"node3654"->"node3601";
node3601[label="NT_SENTENCIAS"];
"node3601"->"node3599";
node3599[label="NT_DECLARACION_TIPO_2"];
"node3599"->"node3600";
node3600[label="numero1"];
"node3599"->"node3597";
node3597[label="NT_EXPRESION"];
"node3597"->"node3598";
node3598[label="0"];
"node3601"->"node3653";
node3653[label="NT_DO_WHILE"];
"node3653"->"node3637";
node3637[label="NT_SENTENCIAS"];
"node3637"->"node3636";
node3636[label="NT_SWITCH"];
"node3636"->"node3602";
node3602[label="NT_EXPRESION"];
"node3602"->"node3603";
node3603[label="numero1"];
"node3636"->"node3614";
node3614[label="NT_ListaCases"];
"node3614"->"node3613";
node3613[label="NT_CASE"];
"node3613"->"node3604";
node3604[label="NT_EXPRESION"];
"node3604"->"node3605";
node3605[label="0"];
"node3613"->"node3611";
node3611[label="NT_SENTENCIAS"];
"node3611"->"node3609";
node3609[label="NT_LLAMADA_FUNCION"];
"node3609"->"node3610";
node3610[label="figura0"];
"node3609"->"node3608";
node3608[label="NT_LISTA_EXPRESIONES"];
"node3608"->"node3606";
node3606[label="NT_EXPRESION"];
"node3606"->"node3607";
node3607[label="8"];
"node3611"->"node3612";
node3612[label="BREAK"];
"node3614"->"node3624";
node3624[label="NT_CASE"];
"node3624"->"node3615";
node3615[label="NT_EXPRESION"];
"node3615"->"node3616";
node3616[label="1"];
"node3624"->"node3622";
node3622[label="NT_SENTENCIAS"];
"node3622"->"node3620";
node3620[label="NT_LLAMADA_FUNCION"];
"node3620"->"node3621";
node3621[label="figura1"];
"node3620"->"node3619";
node3619[label="NT_LISTA_EXPRESIONES"];
"node3619"->"node3617";
node3617[label="NT_EXPRESION"];
"node3617"->"node3618";
node3618[label="10"];
"node3622"->"node3623";
node3623[label="BREAK"];
"node3614"->"node3629";
node3629[label="NT_CASE"];
"node3629"->"node3625";
node3625[label="NT_EXPRESION"];
"node3625"->"node3626";
node3626[label="2"];
"node3629"->"node3628";
node3628[label="NT_SENTENCIAS"];
"node3628"->"node3627";
node3627[label="BREAK"];
"node3636"->"node3634";
node3634[label="NT_DEFAULT"];
"node3634"->"node3635";
node3635[label="default"];
"node3634"->"node3633";
node3633[label="NT_SENTENCIAS"];
"node3633"->"node3632";
node3632[label="PRINT"];
"node3632"->"node3630";
node3630[label="NT_EXPRESION"];
"node3630"->"node3631";
node3631[label="\"Esto se va a print 2 veces :3\""];
"node3637"->"node3645";
node3645[label="NT_ASIGNACION"];
"node3645"->"node3638";
node3638[label="numero1"];
"node3645"->"node3646";
node3646[label="="];
"node3645"->"node3643";
node3643[label="NT_EXPRESION"];
"node3643"->"node3639";
node3639[label="NT_EXPRESION"];
"node3639"->"node3640";
node3640[label="numero1"];
"node3643"->"node3644";
node3644[label="+"];
"node3643"->"node3641";
node3641[label="NT_EXPRESION"];
"node3641"->"node3642";
node3642[label="1"];
"node3653"->"node3651";
node3651[label="NT_EXPRESION"];
"node3651"->"node3647";
node3647[label="NT_EXPRESION"];
"node3647"->"node3648";
node3648[label="numero1"];
"node3651"->"node3652";
node3652[label="<"];
"node3651"->"node3649";
node3649[label="NT_EXPRESION"];
"node3649"->"node3650";
node3650[label="5"];
"node2346"->"node3738";
node3738[label="NT_FUNCION"];
"node3738"->"node3739";
node3739[label="void"];
"node3738"->"node3740";
node3740[label="figura0"];
"node3738"->"node3661";
node3661[label="NT_LISTA_EXPRESIONES_DEF"];
"node3661"->"node3659";
node3659[label="NT_PARAMETRO_DEF"];
"node3659"->"node3658";
node3658[label="NT_TIPO"];
"node3658"->"node3657";
node3657[label="integer"];
"node3659"->"node3660";
node3660[label="numero"];
"node3738"->"node3666";
node3666[label="NT_SENTENCIAS"];
"node3666"->"node3664";
node3664[label="NT_DECLARACION_TIPO_2"];
"node3664"->"node3665";
node3665[label="i"];
"node3664"->"node3662";
node3662[label="NT_EXPRESION"];
"node3662"->"node3663";
node3663[label="0"];
"node3666"->"node3737";
node3737[label="NT_WHILE"];
"node3737"->"node3671";
node3671[label="NT_EXPRESION"];
"node3671"->"node3667";
node3667[label="NT_EXPRESION"];
"node3667"->"node3668";
node3668[label="i"];
"node3671"->"node3672";
node3672[label="<"];
"node3671"->"node3669";
node3669[label="NT_EXPRESION"];
"node3669"->"node3670";
node3670[label="numero"];
"node3737"->"node3677";
node3677[label="NT_SENTENCIAS"];
"node3677"->"node3675";
node3675[label="NT_DECLARACION_TIPO_2"];
"node3675"->"node3676";
node3676[label="j"];
"node3675"->"node3673";
node3673[label="NT_EXPRESION"];
"node3673"->"node3674";
node3674[label="0"];
"node3677"->"node3680";
node3680[label="NT_DECLARACION_TIPO_2"];
"node3680"->"node3681";
node3681[label="numeroMostrar"];
"node3680"->"node3678";
node3678[label="NT_EXPRESION"];
"node3678"->"node3679";
node3679[label="1"];
"node3677"->"node3684";
node3684[label="NT_DECLARACION_TIPO_2"];
"node3684"->"node3685";
node3685[label="unaFila"];
"node3684"->"node3682";
node3682[label="NT_EXPRESION"];
"node3682"->"node3683";
node3683[label="\"\""];
"node3677"->"node3724";
node3724[label="NT_WHILE"];
"node3724"->"node3690";
node3690[label="NT_EXPRESION"];
"node3690"->"node3686";
node3686[label="NT_EXPRESION"];
"node3686"->"node3687";
node3687[label="j"];
"node3690"->"node3691";
node3691[label="<="];
"node3690"->"node3688";
node3688[label="NT_EXPRESION"];
"node3688"->"node3689";
node3689[label="i"];
"node3724"->"node3705";
node3705[label="NT_SENTENCIAS"];
"node3705"->"node3703";
node3703[label="NT_ASIGNACION"];
"node3703"->"node3692";
node3692[label="unaFila"];
"node3703"->"node3704";
node3704[label="="];
"node3703"->"node3701";
node3701[label="NT_EXPRESION"];
"node3701"->"node3697";
node3697[label="NT_EXPRESION"];
"node3697"->"node3693";
node3693[label="NT_EXPRESION"];
"node3693"->"node3694";
node3694[label="unaFila"];
"node3697"->"node3698";
node3698[label="+"];
"node3697"->"node3695";
node3695[label="NT_EXPRESION"];
"node3695"->"node3696";
node3696[label="\" \""];
"node3701"->"node3702";
node3702[label="+"];
"node3701"->"node3699";
node3699[label="NT_EXPRESION"];
"node3699"->"node3700";
node3700[label="numeroMostrar"];
"node3705"->"node3713";
node3713[label="NT_ASIGNACION"];
"node3713"->"node3706";
node3706[label="numeroMostrar"];
"node3713"->"node3714";
node3714[label="="];
"node3713"->"node3711";
node3711[label="NT_EXPRESION"];
"node3711"->"node3707";
node3707[label="NT_EXPRESION"];
"node3707"->"node3708";
node3708[label="numeroMostrar"];
"node3711"->"node3712";
node3712[label="+"];
"node3711"->"node3709";
node3709[label="NT_EXPRESION"];
"node3709"->"node3710";
node3710[label="1"];
"node3705"->"node3722";
node3722[label="NT_ASIGNACION"];
"node3722"->"node3715";
node3715[label="j"];
"node3722"->"node3723";
node3723[label="="];
"node3722"->"node3720";
node3720[label="NT_EXPRESION"];
"node3720"->"node3716";
node3716[label="NT_EXPRESION"];
"node3716"->"node3717";
node3717[label="j"];
"node3720"->"node3721";
node3721[label="+"];
"node3720"->"node3718";
node3718[label="NT_EXPRESION"];
"node3718"->"node3719";
node3719[label="1"];
"node3677"->"node3727";
node3727[label="PRINT"];
"node3727"->"node3725";
node3725[label="NT_EXPRESION"];
"node3725"->"node3726";
node3726[label="unaFila"];
"node3677"->"node3735";
node3735[label="NT_ASIGNACION"];
"node3735"->"node3728";
node3728[label="i"];
"node3735"->"node3736";
node3736[label="="];
"node3735"->"node3733";
node3733[label="NT_EXPRESION"];
"node3733"->"node3729";
node3729[label="NT_EXPRESION"];
"node3729"->"node3730";
node3730[label="i"];
"node3733"->"node3734";
node3734[label="+"];
"node3733"->"node3731";
node3731[label="NT_EXPRESION"];
"node3731"->"node3732";
node3732[label="1"];
"node2346"->"node4067";
node4067[label="NT_FUNCION"];
"node4067"->"node4068";
node4068[label="void"];
"node4067"->"node4069";
node4069[label="figura1"];
"node4067"->"node3745";
node3745[label="NT_LISTA_EXPRESIONES_DEF"];
"node3745"->"node3743";
node3743[label="NT_PARAMETRO_DEF"];
"node3743"->"node3742";
node3742[label="NT_TIPO"];
"node3742"->"node3741";
node3741[label="integer"];
"node3743"->"node3744";
node3744[label="n"];
"node4067"->"node3754";
node3754[label="NT_SENTENCIAS"];
"node3754"->"node3752";
node3752[label="NT_DECLARACION"];
"node3752"->"node3747";
node3747[label="NT_TIPO"];
"node3747"->"node3746";
node3746[label="String"];
"node3752"->"node3748";
node3748[label="NT_LISTA_IDENTIFICADORES"];
"node3748"->"node3749";
node3749[label="StringFigura"];
"node3752"->"node3753";
node3753[label="="];
"node3752"->"node3750";
node3750[label="NT_EXPRESION"];
"node3750"->"node3751";
node3751[label="\"\""];
"node3754"->"node3767";
node3767[label="NT_DECLARACION_TIPO_2"];
"node3767"->"node3768";
node3768[label="i"];
"node3767"->"node3765";
node3765[label="NT_EXPRESION"];
"node3765"->"node3761";
node3761[label="NT_EXPRESION"];
"node3761"->"node3757";
node3757[label="NT_EXPRESION"];
"node3757"->"node3758";
node3758[label="-"];
"node3757"->"node3755";
node3755[label="NT_EXPRESION"];
"node3755"->"node3756";
node3756[label="3"];
"node3761"->"node3762";
node3762[label="*"];
"node3761"->"node3759";
node3759[label="NT_EXPRESION"];
"node3759"->"node3760";
node3760[label="n"];
"node3765"->"node3766";
node3766[label="/"];
"node3765"->"node3763";
node3763[label="NT_EXPRESION"];
"node3763"->"node3764";
node3764[label="2"];
"node3754"->"node4063";
node4063[label="NT_WHILE"];
"node4063"->"node3777";
node3777[label="NT_EXPRESION"];
"node3777"->"node3769";
node3769[label="NT_EXPRESION"];
"node3769"->"node3770";
node3770[label="i"];
"node3777"->"node3778";
node3778[label="<"];
"node3777"->"node3775";
node3775[label="NT_EXPRESION"];
"node3775"->"node3771";
node3771[label="NT_EXPRESION"];
"node3771"->"node3772";
node3772[label="n"];
"node3775"->"node3776";
node3776[label="+"];
"node3775"->"node3773";
node3773[label="NT_EXPRESION"];
"node3773"->"node3774";
node3774[label="1"];
"node4063"->"node3784";
node3784[label="NT_SENTENCIAS"];
"node3784"->"node3782";
node3782[label="NT_ASIGNACION"];
"node3782"->"node3779";
node3779[label="StringFigura"];
"node3782"->"node3783";
node3783[label="="];
"node3782"->"node3780";
node3780[label="NT_EXPRESION"];
"node3780"->"node3781";
node3781[label="\"\""];
"node3784"->"node3797";
node3797[label="NT_DECLARACION_TIPO_2"];
"node3797"->"node3798";
node3798[label="j"];
"node3797"->"node3795";
node3795[label="NT_EXPRESION"];
"node3795"->"node3791";
node3791[label="NT_EXPRESION"];
"node3791"->"node3787";
node3787[label="NT_EXPRESION"];
"node3787"->"node3788";
node3788[label="-"];
"node3787"->"node3785";
node3785[label="NT_EXPRESION"];
"node3785"->"node3786";
node3786[label="3"];
"node3791"->"node3792";
node3792[label="*"];
"node3791"->"node3789";
node3789[label="NT_EXPRESION"];
"node3789"->"node3790";
node3790[label="n"];
"node3795"->"node3796";
node3796[label="/"];
"node3795"->"node3793";
node3793[label="NT_EXPRESION"];
"node3793"->"node3794";
node3794[label="2"];
"node3784"->"node4050";
node4050[label="NT_WHILE"];
"node4050"->"node3817";
node3817[label="NT_EXPRESION"];
"node3817"->"node3799";
node3799[label="NT_EXPRESION"];
"node3799"->"node3800";
node3800[label="j"];
"node3817"->"node3818";
node3818[label="<"];
"node3817"->"node3816";
node3816[label="NT_EXPRESION"];
"node3816"->"node3814";
node3814[label="NT_EXPRESION"];
"node3814"->"node3811";
node3811[label="NT_EXPRESION"];
"node3811"->"node3809";
node3809[label="NT_EXPRESION"];
"node3809"->"node3805";
node3805[label="NT_EXPRESION"];
"node3805"->"node3801";
node3801[label="NT_EXPRESION"];
"node3801"->"node3802";
node3802[label="3"];
"node3805"->"node3806";
node3806[label="*"];
"node3805"->"node3803";
node3803[label="NT_EXPRESION"];
"node3803"->"node3804";
node3804[label="n"];
"node3809"->"node3810";
node3810[label="/"];
"node3809"->"node3807";
node3807[label="NT_EXPRESION"];
"node3807"->"node3808";
node3808[label="2"];
"node3814"->"node3815";
node3815[label="+"];
"node3814"->"node3812";
node3812[label="NT_EXPRESION"];
"node3812"->"node3813";
node3813[label="1"];
"node4050"->"node3823";
node3823[label="NT_SENTENCIAS"];
"node3823"->"node3821";
node3821[label="NT_DECLARACION_TIPO_2"];
"node3821"->"node3822";
node3822[label="absolutoi"];
"node3821"->"node3819";
node3819[label="NT_EXPRESION"];
"node3819"->"node3820";
node3820[label="i"];
"node3823"->"node3826";
node3826[label="NT_DECLARACION_TIPO_2"];
"node3826"->"node3827";
node3827[label="absolutoj"];
"node3826"->"node3824";
node3824[label="NT_EXPRESION"];
"node3824"->"node3825";
node3825[label="j"];
"node3823"->"node3846";
node3846[label="NT_IF"];
"node3846"->"node3832";
node3832[label="NT_EXPRESION"];
"node3832"->"node3828";
node3828[label="NT_EXPRESION"];
"node3828"->"node3829";
node3829[label="i"];
"node3832"->"node3833";
node3833[label="<"];
"node3832"->"node3830";
node3830[label="NT_EXPRESION"];
"node3830"->"node3831";
node3831[label="0"];
"node3846"->"node3845";
node3845[label="NT_SENTENCIAS"];
"node3845"->"node3843";
node3843[label="NT_ASIGNACION"];
"node3843"->"node3834";
node3834[label="absolutoi"];
"node3843"->"node3844";
node3844[label="="];
"node3843"->"node3841";
node3841[label="NT_EXPRESION"];
"node3841"->"node3835";
node3835[label="NT_EXPRESION"];
"node3835"->"node3836";
node3836[label="i"];
"node3841"->"node3842";
node3842[label="*"];
"node3841"->"node3839";
node3839[label="NT_EXPRESION"];
"node3839"->"node3840";
node3840[label="-"];
"node3839"->"node3837";
node3837[label="NT_EXPRESION"];
"node3837"->"node3838";
node3838[label="1"];
"node3823"->"node3865";
node3865[label="NT_IF"];
"node3865"->"node3851";
node3851[label="NT_EXPRESION"];
"node3851"->"node3847";
node3847[label="NT_EXPRESION"];
"node3847"->"node3848";
node3848[label="j"];
"node3851"->"node3852";
node3852[label="<"];
"node3851"->"node3849";
node3849[label="NT_EXPRESION"];
"node3849"->"node3850";
node3850[label="0"];
"node3865"->"node3864";
node3864[label="NT_SENTENCIAS"];
"node3864"->"node3862";
node3862[label="NT_ASIGNACION"];
"node3862"->"node3853";
node3853[label="absolutoj"];
"node3862"->"node3863";
node3863[label="="];
"node3862"->"node3860";
node3860[label="NT_EXPRESION"];
"node3860"->"node3854";
node3854[label="NT_EXPRESION"];
"node3854"->"node3855";
node3855[label="j"];
"node3860"->"node3861";
node3861[label="*"];
"node3860"->"node3858";
node3858[label="NT_EXPRESION"];
"node3858"->"node3859";
node3859[label="-"];
"node3858"->"node3856";
node3856[label="NT_EXPRESION"];
"node3856"->"node3857";
node3857[label="1"];
"node3823"->"node4040";
node4040[label="NT_IF"];
"node4040"->"node4017";
node4017[label="NT_EXPRESION"];
"node4017"->"node3944";
node3944[label="NT_EXPRESION"];
"node3944"->"node3876";
node3876[label="NT_EXPRESION"];
"node3876"->"node3874";
node3874[label="NT_EXPRESION"];
"node3874"->"node3870";
node3870[label="NT_EXPRESION"];
"node3870"->"node3866";
node3866[label="NT_EXPRESION"];
"node3866"->"node3867";
node3867[label="absolutoi"];
"node3870"->"node3871";
node3871[label="+"];
"node3870"->"node3868";
node3868[label="NT_EXPRESION"];
"node3868"->"node3869";
node3869[label="absolutoj"];
"node3874"->"node3875";
node3875[label="<"];
"node3874"->"node3872";
node3872[label="NT_EXPRESION"];
"node3872"->"node3873";
node3873[label="n"];
"node3944"->"node3945";
node3945[label="||"];
"node3944"->"node3943";
node3943[label="NT_EXPRESION"];
"node3943"->"node3941";
node3941[label="NT_EXPRESION"];
"node3941"->"node3929";
node3929[label="NT_EXPRESION"];
"node3929"->"node3903";
node3903[label="NT_EXPRESION"];
"node3903"->"node3889";
node3889[label="NT_EXPRESION"];
"node3889"->"node3887";
node3887[label="NT_EXPRESION"];
"node3887"->"node3883";
node3883[label="NT_EXPRESION"];
"node3883"->"node3879";
node3879[label="NT_EXPRESION"];
"node3879"->"node3880";
node3880[label="-"];
"node3879"->"node3877";
node3877[label="NT_EXPRESION"];
"node3877"->"node3878";
node3878[label="n"];
"node3883"->"node3884";
node3884[label="/"];
"node3883"->"node3881";
node3881[label="NT_EXPRESION"];
"node3881"->"node3882";
node3882[label="2"];
"node3887"->"node3888";
node3888[label="-"];
"node3887"->"node3885";
node3885[label="NT_EXPRESION"];
"node3885"->"node3886";
node3886[label="i"];
"node3903"->"node3904";
node3904[label="*"];
"node3903"->"node3902";
node3902[label="NT_EXPRESION"];
"node3902"->"node3900";
node3900[label="NT_EXPRESION"];
"node3900"->"node3896";
node3896[label="NT_EXPRESION"];
"node3896"->"node3892";
node3892[label="NT_EXPRESION"];
"node3892"->"node3893";
node3893[label="-"];
"node3892"->"node3890";
node3890[label="NT_EXPRESION"];
"node3890"->"node3891";
node3891[label="n"];
"node3896"->"node3897";
node3897[label="/"];
"node3896"->"node3894";
node3894[label="NT_EXPRESION"];
"node3894"->"node3895";
node3895[label="2"];
"node3900"->"node3901";
node3901[label="-"];
"node3900"->"node3898";
node3898[label="NT_EXPRESION"];
"node3898"->"node3899";
node3899[label="i"];
"node3929"->"node3930";
node3930[label="+"];
"node3929"->"node3927";
node3927[label="NT_EXPRESION"];
"node3927"->"node3915";
node3915[label="NT_EXPRESION"];
"node3915"->"node3913";
node3913[label="NT_EXPRESION"];
"node3913"->"node3909";
node3909[label="NT_EXPRESION"];
"node3909"->"node3905";
node3905[label="NT_EXPRESION"];
"node3905"->"node3906";
node3906[label="n"];
"node3909"->"node3910";
node3910[label="/"];
"node3909"->"node3907";
node3907[label="NT_EXPRESION"];
"node3907"->"node3908";
node3908[label="2"];
"node3913"->"node3914";
node3914[label="-"];
"node3913"->"node3911";
node3911[label="NT_EXPRESION"];
"node3911"->"node3912";
node3912[label="j"];
"node3927"->"node3928";
node3928[label="*"];
"node3927"->"node3926";
node3926[label="NT_EXPRESION"];
"node3926"->"node3924";
node3924[label="NT_EXPRESION"];
"node3924"->"node3920";
node3920[label="NT_EXPRESION"];
"node3920"->"node3916";
node3916[label="NT_EXPRESION"];
"node3916"->"node3917";
node3917[label="n"];
"node3920"->"node3921";
node3921[label="/"];
"node3920"->"node3918";
node3918[label="NT_EXPRESION"];
"node3918"->"node3919";
node3919[label="2"];
"node3924"->"node3925";
node3925[label="-"];
"node3924"->"node3922";
node3922[label="NT_EXPRESION"];
"node3922"->"node3923";
node3923[label="j"];
"node3941"->"node3942";
node3942[label="<="];
"node3941"->"node3939";
node3939[label="NT_EXPRESION"];
"node3939"->"node3935";
node3935[label="NT_EXPRESION"];
"node3935"->"node3931";
node3931[label="NT_EXPRESION"];
"node3931"->"node3932";
node3932[label="n"];
"node3935"->"node3936";
node3936[label="*"];
"node3935"->"node3933";
node3933[label="NT_EXPRESION"];
"node3933"->"node3934";
node3934[label="n"];
"node3939"->"node3940";
node3940[label="/"];
"node3939"->"node3937";
node3937[label="NT_EXPRESION"];
"node3937"->"node3938";
node3938[label="2"];
"node4017"->"node4018";
node4018[label="||"];
"node4017"->"node4016";
node4016[label="NT_EXPRESION"];
"node4016"->"node4014";
node4014[label="NT_EXPRESION"];
"node4014"->"node4002";
node4002[label="NT_EXPRESION"];
"node4002"->"node3972";
node3972[label="NT_EXPRESION"];
"node3972"->"node3958";
node3958[label="NT_EXPRESION"];
"node3958"->"node3956";
node3956[label="NT_EXPRESION"];
"node3956"->"node3952";
node3952[label="NT_EXPRESION"];
"node3952"->"node3948";
node3948[label="NT_EXPRESION"];
"node3948"->"node3949";
node3949[label="-"];
"node3948"->"node3946";
node3946[label="NT_EXPRESION"];
"node3946"->"node3947";
node3947[label="n"];
"node3952"->"node3953";
node3953[label="/"];
"node3952"->"node3950";
node3950[label="NT_EXPRESION"];
"node3950"->"node3951";
node3951[label="2"];
"node3956"->"node3957";
node3957[label="-"];
"node3956"->"node3954";
node3954[label="NT_EXPRESION"];
"node3954"->"node3955";
node3955[label="i"];
"node3972"->"node3973";
node3973[label="*"];
"node3972"->"node3971";
node3971[label="NT_EXPRESION"];
"node3971"->"node3969";
node3969[label="NT_EXPRESION"];
"node3969"->"node3965";
node3965[label="NT_EXPRESION"];
"node3965"->"node3961";
node3961[label="NT_EXPRESION"];
"node3961"->"node3962";
node3962[label="-"];
"node3961"->"node3959";
node3959[label="NT_EXPRESION"];
"node3959"->"node3960";
node3960[label="n"];
"node3965"->"node3966";
node3966[label="/"];
"node3965"->"node3963";
node3963[label="NT_EXPRESION"];
"node3963"->"node3964";
node3964[label="2"];
"node3969"->"node3970";
node3970[label="-"];
"node3969"->"node3967";
node3967[label="NT_EXPRESION"];
"node3967"->"node3968";
node3968[label="i"];
"node4002"->"node4003";
node4003[label="+"];
"node4002"->"node4000";
node4000[label="NT_EXPRESION"];
"node4000"->"node3986";
node3986[label="NT_EXPRESION"];
"node3986"->"node3984";
node3984[label="NT_EXPRESION"];
"node3984"->"node3980";
node3980[label="NT_EXPRESION"];
"node3980"->"node3976";
node3976[label="NT_EXPRESION"];
"node3976"->"node3977";
node3977[label="-"];
"node3976"->"node3974";
node3974[label="NT_EXPRESION"];
"node3974"->"node3975";
node3975[label="n"];
"node3980"->"node3981";
node3981[label="/"];
"node3980"->"node3978";
node3978[label="NT_EXPRESION"];
"node3978"->"node3979";
node3979[label="2"];
"node3984"->"node3985";
node3985[label="-"];
"node3984"->"node3982";
node3982[label="NT_EXPRESION"];
"node3982"->"node3983";
node3983[label="j"];
"node4000"->"node4001";
node4001[label="*"];
"node4000"->"node3999";
node3999[label="NT_EXPRESION"];
"node3999"->"node3997";
node3997[label="NT_EXPRESION"];
"node3997"->"node3993";
node3993[label="NT_EXPRESION"];
"node3993"->"node3989";
node3989[label="NT_EXPRESION"];
"node3989"->"node3990";
node3990[label="-"];
"node3989"->"node3987";
node3987[label="NT_EXPRESION"];
"node3987"->"node3988";
node3988[label="n"];
"node3993"->"node3994";
node3994[label="/"];
"node3993"->"node3991";
node3991[label="NT_EXPRESION"];
"node3991"->"node3992";
node3992[label="2"];
"node3997"->"node3998";
node3998[label="-"];
"node3997"->"node3995";
node3995[label="NT_EXPRESION"];
"node3995"->"node3996";
node3996[label="j"];
"node4014"->"node4015";
node4015[label="<="];
"node4014"->"node4012";
node4012[label="NT_EXPRESION"];
"node4012"->"node4008";
node4008[label="NT_EXPRESION"];
"node4008"->"node4004";
node4004[label="NT_EXPRESION"];
"node4004"->"node4005";
node4005[label="n"];
"node4008"->"node4009";
node4009[label="*"];
"node4008"->"node4006";
node4006[label="NT_EXPRESION"];
"node4006"->"node4007";
node4007[label="n"];
"node4012"->"node4013";
node4013[label="/"];
"node4012"->"node4010";
node4010[label="NT_EXPRESION"];
"node4010"->"node4011";
node4011[label="2"];
"node4040"->"node4028";
node4028[label="NT_SENTENCIAS"];
"node4028"->"node4026";
node4026[label="NT_ASIGNACION"];
"node4026"->"node4019";
node4019[label="StringFigura"];
"node4026"->"node4027";
node4027[label="="];
"node4026"->"node4024";
node4024[label="NT_EXPRESION"];
"node4024"->"node4020";
node4020[label="NT_EXPRESION"];
"node4020"->"node4021";
node4021[label="StringFigura"];
"node4024"->"node4025";
node4025[label="+"];
"node4024"->"node4022";
node4022[label="NT_EXPRESION"];
"node4022"->"node4023";
node4023[label="\"* \""];
"node4040"->"node4039";
node4039[label="NT_ELSE"];
"node4039"->"node4038";
node4038[label="NT_SENTENCIAS"];
"node4038"->"node4036";
node4036[label="NT_ASIGNACION"];
"node4036"->"node4029";
node4029[label="StringFigura"];
"node4036"->"node4037";
node4037[label="="];
"node4036"->"node4034";
node4034[label="NT_EXPRESION"];
"node4034"->"node4030";
node4030[label="NT_EXPRESION"];
"node4030"->"node4031";
node4031[label="StringFigura"];
"node4034"->"node4035";
node4035[label="+"];
"node4034"->"node4032";
node4032[label="NT_EXPRESION"];
"node4032"->"node4033";
node4033[label="\". \""];
"node3823"->"node4048";
node4048[label="NT_ASIGNACION"];
"node4048"->"node4041";
node4041[label="j"];
"node4048"->"node4049";
node4049[label="="];
"node4048"->"node4046";
node4046[label="NT_EXPRESION"];
"node4046"->"node4042";
node4042[label="NT_EXPRESION"];
"node4042"->"node4043";
node4043[label="j"];
"node4046"->"node4047";
node4047[label="+"];
"node4046"->"node4044";
node4044[label="NT_EXPRESION"];
"node4044"->"node4045";
node4045[label="1"];
"node3784"->"node4053";
node4053[label="PRINT"];
"node4053"->"node4051";
node4051[label="NT_EXPRESION"];
"node4051"->"node4052";
node4052[label="StringFigura"];
"node3784"->"node4061";
node4061[label="NT_ASIGNACION"];
"node4061"->"node4054";
node4054[label="i"];
"node4061"->"node4062";
node4062[label="="];
"node4061"->"node4059";
node4059[label="NT_EXPRESION"];
"node4059"->"node4055";
node4055[label="NT_EXPRESION"];
"node4055"->"node4056";
node4056[label="i"];
"node4059"->"node4060";
node4060[label="+"];
"node4059"->"node4057";
node4057[label="NT_EXPRESION"];
"node4057"->"node4058";
node4058[label="1"];
"node3754"->"node4066";
node4066[label="PRINT"];
"node4066"->"node4064";
node4064[label="NT_EXPRESION"];
"node4064"->"node4065";
node4065[label="\"if la figura es un corazon +10 <3\""];
}